<?xml version="1.0" standalone="no"?>
<!DOCTYPE svg PUBLIC "-//W3C//DTD SVG 1.1//EN" "http://www.w3.org/Graphics/SVG/1.1/DTD/svg11.dtd" >
<svg xmlns="http://www.w3.org/2000/svg">
<metadata></metadata>
<defs>
<font id="OswaldRegular" horiz-adv-x="1152" >
<font-face units-per-em="2048" ascent="1638" descent="-410" />
<missing-glyph horiz-adv-x="350" />
<glyph horiz-adv-x="0" />
<glyph horiz-adv-x="2048" />
<glyph unicode=" "  horiz-adv-x="350" />
<glyph unicode="&#x09;" horiz-adv-x="350" />
<glyph unicode="&#xa0;" horiz-adv-x="350" />
<glyph unicode="!" horiz-adv-x="375" d="M64 0v256h256v-256h-256zM64 1792h256v-1408h-192z" />
<glyph unicode="&#x22;" horiz-adv-x="704" d="M62 1792h256l-64 -384h-128zM385 1792h256l-64 -384h-128z" />
<glyph unicode="#" horiz-adv-x="1088" d="M64 0l90 640h-90v192h117l28 192h-145v192h172l82 576h256l-82 -576h192l82 576h256l-82 -576h84v-192h-111l-28 -192h139v-192h-166l-90 -640h-256l90 640h-192l-90 -640h-256zM437 832h193l27 192h-192z" />
<glyph unicode="$" horiz-adv-x="1216" d="M127 1378q0 86 29 164.5t85.5 138t140.5 94.5t194 35v110h128v-121l41 -9q96 -26 159.5 -73.5t102.5 -107.5t57.5 -128.5t23.5 -136.5l-256 -64q-2 41 -8.5 79.5t-19.5 73t-32.5 64t-47.5 52.5l-20 15v-566l128 -102q61 -48 108.5 -107t80.5 -123t50 -131.5t17 -133.5 q0 -77 -23.5 -147.5t-71 -127t-120 -94t-169.5 -47.5v-113h-128v113q-80 6 -141.5 31t-108 61.5t-79.5 80.5t-55 89q-28 58 -44 124t-20 141l256 64q2 -59 11.5 -115.5t29 -105.5t51.5 -87t79 -60l21 -8v555l-256 205q-50 40 -86 89.5t-60 104t-35.5 111.5t-11.5 113z M384 1405q0 -66 31 -133.5t97 -119.5l64 -51v499q-51 0 -87 -16q-56 -23 -80.5 -71t-24.5 -108zM704 198q128 29 128 186q0 72 -27 131t-81 113l-20 20v-450z" />
<glyph unicode="%" horiz-adv-x="1999" d="M78 1032q0 111 20 190t52 133t72.5 86t81 48.5t77.5 21.5t63 5t63 -5t78 -21.5t81.5 -48.5t72.5 -86t52 -133t20 -190q0 -133 -31 -226t-82.5 -152t-117.5 -86t-136 -27t-136 27t-117 86t-82 152t-31 226zM311 1032q0 -26 2 -58.5t7.5 -65.5t15 -64t24.5 -55.5t35.5 -39 t48.5 -14.5q42 0 68.5 31t41 77t19.5 97t5 92q0 40 -4 90t-18 94.5t-40.5 74.5t-71.5 30q-44 0 -70.5 -30t-40.5 -74.5t-18 -94.5t-4 -90zM751 0l283 1518h219l-282 -1518h-220zM1188 492q0 111 20 190t52 132.5t72.5 85.5t81 48.5t77.5 21.5t63 5t63 -5t78 -21.5 t81.5 -48.5t72.5 -85.5t52 -132.5t20 -190q0 -133 -31 -226.5t-82.5 -152.5t-117.5 -86t-136 -27t-136 27t-117 86t-82 152.5t-31 226.5zM1421 492q0 -40 5 -91.5t19.5 -97t40.5 -77t68 -31.5t68.5 31t41 76.5t19.5 97t5 92.5q0 40 -4 90t-18 94t-40.5 74t-71.5 30 q-44 0 -70.5 -30t-40.5 -74t-18 -94t-4 -90z" />
<glyph unicode="&#x26;" horiz-adv-x="1344" d="M128 384q0 62 15 128t46.5 132t80 130t114.5 122q-30 61 -64 128t-62.5 133.5t-47 130.5t-18.5 120q0 83 26 156t75 128t120.5 86.5t162.5 31.5q79 0 149 -24.5t122.5 -68.5t82.5 -106.5t30 -138.5q0 -47 -14 -98t-38 -103t-55.5 -104t-67 -100.5t-73 -92t-72.5 -78.5 l256 -384q20 45 35 123.5t29 196.5h256q0 -49 -14.5 -115t-38 -133.5t-51.5 -130t-55 -103.5q10 -13 27 -29.5t38.5 -30.5t45.5 -24t48 -10v-274q-48 0 -90.5 14.5t-81.5 38.5t-75.5 55.5t-72.5 66.5q-33 -42 -76 -75t-92.5 -55t-104 -33.5t-111.5 -11.5q-92 0 -163.5 31.5 t-120.5 85.5t-74.5 127.5t-25.5 157.5zM384 384q0 -39 7 -73.5t22 -61t39.5 -42t59.5 -15.5q39 0 72.5 12.5t62 31.5t51 41.5t38.5 42.5l-123 183q-23 35 -45.5 69t-41.5 62t-31 46.5t-14 23.5q-21 -28 -39 -66t-30.5 -81t-20 -87.5t-7.5 -85.5zM448 1408q0 -35 8.5 -82.5 t22 -100t31 -105t35.5 -96.5q16 20 34 52.5t36 71.5t34 83t28 87t19.5 82.5t7.5 71.5q0 57 -34 92.5t-94 35.5q-32 0 -56 -16t-40 -42.5t-24 -61.5t-8 -72z" />
<glyph unicode="'" horiz-adv-x="384" d="M62 1792h256l-64 -384h-128z" />
<glyph unicode="(" horiz-adv-x="640" d="M128 896q0 195 13 342t38.5 253.5t63.5 177t87.5 112t111 58.5t134.5 17v-192q-38 0 -67 -14t-50 -48t-35.5 -91t-23.5 -142t-12.5 -202t-3.5 -271t3.5 -271t12.5 -202t23.5 -142t35.5 -91t50 -48t67 -14v-192q-73 0 -134.5 17t-111 58.5t-87.5 112t-63.5 177 t-38.5 253.5t-13 342z" />
<glyph unicode=")" horiz-adv-x="640" d="M64 -64v192q38 0 67 14t50 48t35.5 91t23.5 142t12.5 202t3.5 271t-3.5 271t-12.5 202t-23.5 142t-35.5 91t-50 48t-67 14v192q73 0 134.5 -17t111 -58.5t87.5 -112t63.5 -177t38.5 -253.5t13 -342t-13 -342t-38.5 -253.5t-63.5 -177t-87.5 -112t-111 -58.5t-134.5 -17z " />
<glyph unicode="*" horiz-adv-x="896" d="M106 1335l61 161l245 -132l-28 300h192l-29 -300l246 132l61 -161l-257 -99l172 -242l-152 -90l-137 277l-137 -277l-152 90l172 243z" />
<glyph unicode="+" horiz-adv-x="704" d="M64 576v192h192v192h192v-192h192v-192h-192v-192h-192v192h-192z" />
<glyph unicode="," horiz-adv-x="408" d="M76 0v256h256q0 -144 -3 -242t-21 -158t-57 -86t-111 -26l-64 128q48 0 74 13.5t38 33.5t14 42t2 39h-128z" />
<glyph unicode="-" horiz-adv-x="384" d="M0 448v192h384v-192h-384z" />
<glyph unicode="." horiz-adv-x="384" d="M64 0v256h256v-256h-256z" />
<glyph unicode="/" horiz-adv-x="832" d="M0 0l575 1792h257l-576 -1792h-256z" />
<glyph unicode="0" d="M128 512v768q0 121 24.5 207t63.5 145t88 94t99 54t95.5 24.5t77.5 5.5t77.5 -5.5t95.5 -24.5t99 -54t88 -94t63.5 -145t24.5 -207v-768q0 -142 -37.5 -242.5t-100 -164.5t-143.5 -93.5t-167 -29.5t-167 29.5t-143.5 93.5t-100 164.5t-37.5 242.5zM384 512 q0 -28 2.5 -62.5t9.5 -70t20.5 -69.5t34.5 -60t52 -42t73 -16t73 16t52 42t34.5 60t20.5 69.5t9.5 70t2.5 62.5v768q0 29 -1.5 64t-8 70.5t-18.5 69t-33.5 59.5t-53.5 41.5t-77 15.5t-77 -15.5t-53.5 -41.5t-33.5 -59.5t-18.5 -69t-8 -70.5t-1.5 -64v-768z" />
<glyph unicode="1" horiz-adv-x="640" d="M64 1408v192q31 11 67.5 27.5t72 40t66 54.5t50.5 70h192v-1792h-256v1408h-192z" />
<glyph unicode="2" horiz-adv-x="1089" d="M96 0v256l449 640q68 97 106.5 166t57.5 120.5t23.5 89.5t4.5 72q0 48 -12 94t-36 82t-60 58t-84 22t-84 -23t-60 -65t-36 -101t-12 -131v-64h-256v64q0 120 25 218t79 167t139 107t205 38t205 -37t139 -100t79 -148t25 -181q0 -72 -11.5 -135t-35.5 -123.5t-60 -122 t-85 -131.5l-448 -576h640v-256h-897z" />
<glyph unicode="3" horiz-adv-x="1088" d="M96 448v64h256q0 -96 12 -158t36 -98t60 -50t84 -14t84 14t60 50t36 98t12 158q0 72 -13 131t-43 101t-79 65t-121 23v256q72 0 121 13t79 43t43 79t13 121t-12 121t-36 79t-60 43t-84 13t-84 -14t-60 -50t-36 -98t-12 -158h-256v64q0 96 25 181t79 148t139 100t205 37 t205 -37t139 -100t79 -148t25 -181t-25.5 -163.5t-64 -112.5t-83 -70.5t-83.5 -37.5q39 -13 83.5 -41.5t83 -80t64 -131.5t25.5 -195q0 -120 -25 -218t-79 -167t-139 -107t-205 -38t-205 37t-139 100t-79 148t-25 181z" />
<glyph unicode="4" horiz-adv-x="1126" d="M96 460v285l448 1048h320v-1091h198v-242h-198v-460h-256v460h-512zM352 702h256v770z" />
<glyph unicode="5" d="M128 512h256v-40q0 -52 5 -103t22.5 -91.5t52 -66t93.5 -25.5q72 0 113.5 29.5t63.5 89t28 148t6 205.5q0 66 -4.5 123.5t-23 100.5t-57 67.5t-106.5 24.5q-36 0 -67 -14.5t-55.5 -36.5t-42 -48t-26.5 -49h-218v966h792v-256h-560l-16 -434q17 10 40.5 21.5t55 21 t71.5 15.5t89 6q107 0 180.5 -38.5t118.5 -108.5t65 -166.5t20 -212.5q0 -73 -6 -150t-23 -150t-48 -138.5t-81.5 -114t-123 -77t-171.5 -28.5q-136 0 -222 42t-135 114t-67.5 168.5t-18.5 205.5z" />
<glyph unicode="6" d="M128 576v576q0 144 25 265t79 208t139 136t205 49q96 0 178 -28t142 -85t94 -145t34 -208h-256q0 72 -11.5 121t-35.5 79t-60 43t-85 13q-192 0 -192 -384v-256q11 19 30.5 41.5t50.5 42t74 32t101 12.5q120 0 195 -44t117 -116t57 -164t15 -188q0 -120 -25 -228 t-79 -189t-139 -129t-205 -48q-96 0 -178 39t-142 114t-94 186t-34 255zM384 512q0 -72 12 -131t36 -101t60 -65t84 -23t84 23t60 65t36 101t12 131t-3 141t-21 123t-57 87t-111 33q-39 0 -69.5 -12.5t-54.5 -32t-41 -42t-27 -41.5v-256z" />
<glyph unicode="7" horiz-adv-x="845" d="M64 1579v213h717v-123l-326 -1669h-246l328 1579h-473z" />
<glyph unicode="8" horiz-adv-x="1088" d="M96 511q0 97 13.5 166t38.5 119.5t61 85.5t81 64q-52 39 -84.5 83.5t-51 95t-25.5 105.5t-7 114q0 108 26 194t78.5 146.5t132 93t186.5 32.5q106 0 185.5 -32.5t131.5 -93t78 -146.5t26 -194q0 -59 -6.5 -114t-25 -105t-51 -95t-84.5 -84q45 -30 80.5 -65t60.5 -84.5 t38.5 -119t13.5 -166.5q0 -120 -23 -217.5t-76 -166.5t-138.5 -107t-209.5 -38q-125 0 -210.5 38t-138.5 107t-76.5 166.5t-23.5 217.5zM352 511q0 -48 3 -103.5t21 -103.5t57.5 -80t111.5 -32t110.5 32t56.5 80t21 103.5t3 103.5q0 47 -6 101t-25.5 99.5t-57.5 76 t-102 30.5q-65 0 -103 -30.5t-58 -76t-26 -99.5t-6 -101zM383 1344q0 -48 5 -98t22 -90.5t49 -66.5t86 -26t85.5 26t48 66.5t21.5 90.5t5 98q0 46 -6.5 91.5t-24 82t-49 59.5t-80.5 23q-51 0 -82.5 -23t-49 -59.5t-24 -82t-6.5 -91.5z" />
<glyph unicode="9" d="M128 448h256q0 -72 11.5 -121t35.5 -79t60 -43t85 -13q192 0 192 384v256q-12 -20 -31.5 -42t-50.5 -41.5t-73.5 -32t-100.5 -12.5q-120 0 -195 44t-117 116t-57 164t-15 188q0 120 25 228t79 189t139 129t205 48q96 0 178 -39t142 -114t94 -186t34 -255v-576 q0 -144 -25 -265t-79 -208t-139 -136t-205 -49q-96 0 -178 28t-142 85t-94 145t-34 208zM384 1280q0 -72 3 -141t21 -123t57 -87t111 -33q38 0 69 12.5t54.5 31.5t40.5 41.5t28 42.5v256q0 72 -12 131t-36 101t-60 65t-84 23t-84 -23t-60 -65t-36 -101t-12 -131z" />
<glyph unicode=":" horiz-adv-x="439" d="M128 256v256h256v-256h-256zM128 832v256h256v-256h-256z" />
<glyph unicode=";" horiz-adv-x="384" d="M64 128q48 0 74 13.5t38 33.5t14 42t2 39h-128v256h256q0 -144 -3 -242t-21 -158t-57 -86t-111 -26zM64 832v256h256v-256h-256z" />
<glyph unicode="&#x3c;" horiz-adv-x="832" d="M64 512v256l640 448v-256l-448 -319l448 -321v-256z" />
<glyph unicode="=" horiz-adv-x="704" d="M64 255v192h576v-192h-576zM64 576v192h576v-192h-576z" />
<glyph unicode="&#x3e;" horiz-adv-x="832" d="M128 64v256l448 321l-448 319v256l640 -448v-256z" />
<glyph unicode="?" d="M128 1152v64q0 120 34 205t94 139t142 79t178 25q120 0 205.5 -34t139.5 -94t79 -142t25 -178q0 -194 -95 -338t-290 -238v-256h-256v320q120 72 195 143t117 137t57 125t15 107q0 192 -192 192q-48 0 -84 -13t-60 -43t-36 -79t-12 -121h-256zM384 0v256h256v-256h-256z " />
<glyph unicode="@" horiz-adv-x="1782" d="M128 768q0 192 56.5 341.5t158.5 252.5t243 156.5t310 53.5q180 0 321 -53.5t238 -156.5t148 -252.5t51 -341.5q0 -112 -23 -191t-58.5 -131.5t-78.5 -83.5t-84 -46.5t-74.5 -19.5t-49.5 -4q-60 0 -106 12.5t-79.5 32t-55.5 41.5t-34 42q-9 -20 -23.5 -42t-35.5 -41.5 t-48.5 -32t-63.5 -12.5q-62 0 -110.5 19t-85 51t-62 73.5t-41 86t-22.5 89t-7 82.5q0 129 25 224t67 157.5t97 92.5t115 30q42 0 69.5 -14t43 -34.5t22 -44t7.5 -43.5v127h256v-568q0 -19 1 -40t7 -38t20 -28.5t40 -11.5q23 0 44 14.5t37 46.5t25.5 82.5t9.5 122.5 q0 170 -33.5 287t-98 189t-157.5 104t-213 32q-48 0 -105 -10t-114 -35t-110 -69t-93.5 -112t-65 -163t-24.5 -223q0 -160 24.5 -274.5t67 -192.5t99.5 -125t120.5 -72t131 -32.5t131.5 -7.5q74 0 152 17t144 38l94 -196q-44 -10 -92.5 -19t-98.5 -16t-100.5 -11.5 t-98.5 -4.5q-207 0 -362.5 50t-259.5 158t-156 278t-52 410zM768 693q0 -53 9 -89t25 -59t37 -33t45 -10q43 0 57.5 13t16.5 27v403q-2 16 -12.5 33.5t-41.5 17.5q-48 0 -75.5 -25t-41 -67t-16.5 -97t-3 -114z" />
<glyph unicode="A" horiz-adv-x="1140" d="M58 0l384 1792h256l384 -1792h-256l-96 448h-320l-96 -448h-256zM442 640h256l-128 768z" />
<glyph unicode="B" horiz-adv-x="1184" d="M128 0v1792h384q112 0 196 -20t144.5 -53.5t100.5 -78.5t63 -94.5t32.5 -101.5t9.5 -100q0 -72 -12.5 -132t-45.5 -108t-89 -84t-143 -60q72 -24 131 -58t101 -85.5t65 -125.5t23 -179q0 -113 -35 -207t-101 -161.5t-161 -105.5t-215 -38h-448zM384 192h128q72 0 131 14 t101 50t65 98t23 158t-23 158t-65 98t-101 50t-131 14h-128v-640zM384 1024h128q32 0 68 4t71.5 15.5t68.5 33t57.5 57t39.5 87t15 123.5q0 96 -34 148t-94 76t-142 28t-178 4v-576z" />
<glyph unicode="C" horiz-adv-x="1216" d="M96 641v511q0 144 26 265t86 208t158 136t242 49q136 0 233.5 -43.5t159 -121.5t90.5 -187.5t29 -241.5h-256q0 96 -13 168t-43 120t-79 72t-121 24t-121 -24t-79 -72t-43 -120t-13 -168v-640q0 -72 13 -141t43 -123t79 -87t121 -33t121 33t79 87t43 123t13 141v64h256 v-64q0 -120 -26 -228t-86 -189t-158 -129t-242 -48t-242 49t-158 136.5t-86 208.5t-26 265z" />
<glyph unicode="D" horiz-adv-x="1120" d="M128 0v1792h384q144 0 242 -26t158 -86t86 -158t26 -242v-704q0 -144 -26 -252t-86 -180t-158.5 -108t-243.5 -36h-382zM384 192h128q96 0 148 25t76 79t28 139t4 205v576q0 96 -4 168t-28.5 120t-77.5 72t-151 24h-123v-1408z" />
<glyph unicode="E" horiz-adv-x="896" d="M128 0v1792h704v-192h-448v-576h320v-192h-320v-640h448v-192h-704z" />
<glyph unicode="F" horiz-adv-x="896" d="M128 0v1792h704v-192h-448v-576h320v-192h-320v-832h-256z" />
<glyph unicode="G" horiz-adv-x="1216" d="M96 698v454q0 144 26 265t86 208t158 136t242 49q127 0 222.5 -39.5t160 -115t97 -186.5t32.5 -253h-256q0 96 -13 168t-43 120t-79 72t-121 24t-121 -24t-79 -72t-43 -120t-13 -168v-576q0 -144 22 -232t58 -136t82 -64t94 -16t94 16t82 64t58 136t22 232v64h-256v192 h512v-896h-192l-64 192q-12 -33 -32 -69.5t-50.5 -68t-73.5 -52t-100 -20.5q-80 0 -149 13.5t-126 45.5t-101 85t-74.5 133t-46 188t-15.5 251z" />
<glyph unicode="H" horiz-adv-x="1216" d="M128 0v1792h256v-768h448v768h256v-1792h-256v832h-448v-832h-256z" />
<glyph unicode="I" horiz-adv-x="542" d="M140 0v1792h256v-1792h-256z" />
<glyph unicode="J" horiz-adv-x="640" d="M0 0v192q72 0 121 4t79 28t43 76t13 148v1344h256v-1344q0 -120 -15 -205t-57 -139t-117 -79t-195 -25h-128z" />
<glyph unicode="K" horiz-adv-x="1216" d="M128 0v1792h256v-768l384 768h320l-385 -704l449 -1088h-320l-320 832l-128 -256v-576h-256z" />
<glyph unicode="L" horiz-adv-x="896" d="M128 0v1792h256v-1600h448v-192h-704z" />
<glyph unicode="M" horiz-adv-x="1472" d="M128 0v1792h354l254 -1372l254 1372h354v-1792h-256v1414l-256 -1414h-192l-256 1414v-1414h-256z" />
<glyph unicode="N" d="M128 0v1792h192l448 -1108v1108h256v-1792h-182l-458 1192v-1192h-256z" />
<glyph unicode="O" horiz-adv-x="1216" d="M96 576v640q0 80 10 155t33.5 141t62.5 121t95.5 94t133.5 61t177 22q147 0 245.5 -48t157.5 -129t84 -189t25 -228v-640q0 -120 -25 -228t-84 -189t-157.5 -129t-245.5 -48q-100 0 -177 22t-133.5 61t-95.5 94t-62.5 121t-33.5 141t-10 155zM352 512q0 -72 13 -131 t43 -101t79 -65t121 -23t121 23t79 65t43 101t13 131v768q0 72 -13 131t-43 101t-79 65t-121 23t-121 -23t-79 -65t-43 -101t-13 -131v-768z" />
<glyph unicode="P" horiz-adv-x="1088" d="M128 0v1792h448q120 0 205 -35t139 -101t79 -161t25 -215t-34 -205t-94 -139t-142 -79t-178 -25h-192v-832h-256zM384 1024h64q96 0 158 13t98 43t50 79t14 121t-5 131t-35 101t-95 65t-185 23h-64v-576z" />
<glyph unicode="Q" horiz-adv-x="1216" d="M96 576v640q0 80 10 155t33.5 141t62.5 121t95.5 94t133.5 61t177 22q147 0 245.5 -48t157.5 -129t84 -189t25 -228v-640q0 -81 -10.5 -156t-35 -141t-64.5 -120.5t-98 -94.5q24 -24 60 -44t84 -20v-192q-47 0 -89 13.5t-80.5 37.5t-74.5 58.5t-71 76.5q-62 -12 -133 -12 q-100 0 -177 22t-133.5 61t-95.5 94t-62.5 121t-33.5 141t-10 155zM352 512q0 -72 13 -131t43 -101t79 -65t121 -23t121 23t79 65t43 101t13 131v768q0 72 -13 131t-43 101t-79 65t-121 23t-121 -23t-79 -65t-43 -101t-13 -131v-768z" />
<glyph unicode="R" d="M128 0v1792h320q168 0 279 -34.5t177 -97.5t93 -151.5t27 -196.5q0 -107 -22.5 -180.5t-56.5 -122t-73 -75t-72 -38.5l288 -896h-254l-258 832h-192v-832h-256zM384 1024h64q72 0 131 13.5t101 46.5t65 88.5t23 139.5t-23 139.5t-65 88.5t-101 46.5t-131 13.5h-64v-576z " />
<glyph unicode="S" horiz-adv-x="1132" d="M95 1378q0 86 29 164.5t85.5 138t140.5 94.5t194 35q94 0 167 -20t127.5 -53t92 -75t61.5 -85q28 -52 43.5 -110.5t20.5 -122.5l-256 -64q-3 49 -14.5 105t-40 104t-77 79.5t-124.5 31.5q-51 0 -87.5 -15.5t-59.5 -42.5t-34 -62.5t-11 -74.5q0 -66 31.5 -133.5 t96.5 -119.5l320 -256q61 -49 108.5 -107.5t80.5 -122.5t50 -131.5t17 -133.5q0 -83 -27 -158.5t-82.5 -133.5t-139.5 -92.5t-199 -34.5q-96 0 -169 22.5t-127 60t-91 85t-61 97.5q-28 58 -44 124t-20 141l256 64q3 -60 14.5 -127.5t40 -124.5t77 -94.5t124.5 -37.5 q192 0 192 192q0 48 -12 89.5t-36 80t-60 75t-84 75.5l-320 256q-50 39 -86 88.5t-60 104.5t-35.5 112t-11.5 113z" />
<glyph unicode="T" horiz-adv-x="1024" d="M64 1564v228h896v-228h-320v-1564h-256v1564h-320z" />
<glyph unicode="U" horiz-adv-x="1280" d="M128 640v1152h256v-1152q0 -48 1 -100t8.5 -101.5t22.5 -94.5t43.5 -78.5t72.5 -53.5t108 -20t108 20t72.5 53.5t43.5 78.5t22.5 94.5t8.5 101.5t1 100v1152h256v-1152q0 -80 -7 -160t-26.5 -153t-54.5 -136.5t-92 -110t-138.5 -73t-193.5 -26.5t-193.5 26.5t-138.5 73 t-92 110t-54.5 136.5t-26.5 153t-7 160z" />
<glyph unicode="V" d="M64 1792h256l189 -960l66 -448l68 448l189 960h256l-384 -1792h-256z" />
<glyph unicode="W" horiz-adv-x="1664" d="M64 1792h256l128 -832l65 -512l63 512l128 832h256l128 -832l63 -512l65 512l128 832h256l-320 -1792h-256l-128 832l-64 512l-64 -512l-128 -832h-256z" />
<glyph unicode="X" d="M64 1792h256l256 -704l256 704h256l-320 -859l316 -933h-254l-254 768l-254 -768h-256l318 929z" />
<glyph unicode="Y" horiz-adv-x="1082" d="M29 1792h256l256 -896l256 896h256l-384 -1216v-576h-256v576z" />
<glyph unicode="Z" horiz-adv-x="960" d="M64 0v192l576 1408h-512v192h768v-192l-576 -1408h576v-192h-832z" />
<glyph unicode="[" horiz-adv-x="768" d="M128 -64v1920h512v-128h-256v-1664h256v-128h-512z" />
<glyph unicode="\" horiz-adv-x="576" d="M64 1792h256l192 -1792h-256z" />
<glyph unicode="]" horiz-adv-x="768" d="M128 -64v128h256v1664h-256v128h512v-1920h-512z" />
<glyph unicode="^" horiz-adv-x="896" d="M64 896l256 640h256l256 -640h-256l-129 448l-127 -448h-256z" />
<glyph unicode="_" horiz-adv-x="768" d="M0 0v192h768v-192h-768z" />
<glyph unicode="`" horiz-adv-x="640" d="M128 1792h256l128 -384h-128z" />
<glyph unicode="a" horiz-adv-x="973" d="M96 283q0 49 5 94t23 87.5t51.5 83.5t90.5 82.5t140.5 84.5t201.5 89v92q0 66 -11 106.5t-29 62t-41 28.5t-47 7t-47 -7.5t-41 -29.5t-29 -62t-11 -105h-256q1 91 28.5 165.5t77.5 127t120.5 81t157.5 28.5q103 0 175.5 -36t119 -93t68 -129t21.5 -144v-576 q0 -117 9.5 -193.5t23.5 -126.5h-255l-34 192q-24 -48 -49 -87t-55 -66t-67 -42t-85 -15t-94 25t-82 67t-58 96t-22 113zM352 351q0 -48 11 -78.5t29 -48.5t41 -25t47 -7q19 0 37.5 9t35 22.5t30.5 30.5t25 32v354q-65 -43 -113 -77t-79.5 -67t-47.5 -67.5t-16 -77.5z" />
<glyph unicode="b" horiz-adv-x="1056" d="M128 0v1791h256v-638q49 52 89 81.5t71.5 43.5t56 17t43.5 3q90 0 150.5 -38.5t97 -124.5t52.5 -223t16 -335q0 -58 -6.5 -124.5t-21 -132.5t-39 -127.5t-60 -108t-83.5 -74.5t-110 -28q-37 0 -72 11t-67.5 29.5t-62 43t-54.5 50.5v-116h-256zM384 232q57 -23 109 -31.5 t83 -8.5q39 0 64 26.5t39 87t19.5 158.5t5.5 241q0 84 -2 154.5t-14 121t-38 79t-74 28.5t-100 -13.5t-92 -37.5v-805z" />
<glyph unicode="c" horiz-adv-x="923" d="M96 640q0 64 2 137.5t12.5 146.5t33.5 141t65.5 119.5t108.5 82.5t162 31q98 0 164.5 -25.5t109 -66.5t65.5 -93t33 -103.5t11 -98.5t1 -79h-256q0 16 -0.5 42t-3.5 55.5t-10.5 60t-22 54.5t-36.5 39.5t-55 15.5q-48 0 -74 -35.5t-38 -98t-14 -146t-2 -179.5t2 -178 t14 -142t38 -94t74 -34t74 22t38 58t14 82t2 94h256q0 -32 -2 -79t-13.5 -98.5t-35 -103.5t-66 -93t-108 -66.5t-159.5 -25.5q-96 0 -162 31t-108.5 82.5t-65.5 119.5t-33.5 141t-12.5 146.5t-2 137.5z" />
<glyph unicode="d" horiz-adv-x="1056" d="M96 577q0 198 16 335t52.5 223t97 124.5t150.5 38.5q19 0 43.5 -3t56 -17t71 -43.5t89.5 -81.5v638h256v-1791h-256v116q-25 -26 -54.5 -50.5t-62 -43t-67.5 -29.5t-72 -11q-62 0 -110 28t-83.5 74.5t-60 108t-39 127.5t-21 132.5t-6.5 124.5zM352 705q0 -143 5.5 -241 t19.5 -158.5t39 -87t64 -26.5q31 0 83 8.5t109 31.5v805q-40 24 -92 37.5t-100 13.5t-74 -28.5t-38 -79t-14 -121t-2 -154.5z" />
<glyph unicode="e" horiz-adv-x="950" d="M96 670q0 181 24 301.5t72 193t120 103t168 30.5t168 -30.5t120 -103t72 -193t24 -301.5v-30h-512v-64q0 -72 2 -141t14 -123t38 -87t74 -33q49 0 75 22t38 58t14 82t2 94h255q0 -240 -96 -353t-289 -113q-96 0 -167.5 31.5t-119.5 109.5t-72 211t-24 336zM352 768h256 q0 48 -1.5 104t-13.5 104t-38 80t-75 32q-48 0 -74 -32t-38 -80t-14 -104t-2 -104z" />
<glyph unicode="f" horiz-adv-x="641" d="M57 1088v192h128v49q0 43 0.5 89.5t8 90.5t24 84t49 70t83 47.5t125.5 17.5q36 0 70 -2.5t88 -9.5v-190q-24 2 -47.5 6t-38.5 4q-36 0 -57.5 -13t-32 -35t-13.5 -51t-3 -61v-96h192v-192h-192v-1088h-256v1088h-128z" />
<glyph unicode="g" horiz-adv-x="973" d="M33 -195q0 24 6.5 58t30.5 85t65.5 84t89.5 57q-63 17 -95.5 48.5t-32.5 63.5q0 27 14 61.5t34 69t42 65.5t38 51q-68 81 -98 181t-30 203q0 120 33 208t87 145t123 85t141 28q48 0 87 -8t72 -25.5t61.5 -46.5t55.5 -71q13 24 33.5 50.5t49.5 49t67 37t86 14.5v-210 q-30 0 -55 -6t-45 -15.5t-35 -21t-25 -21.5q10 -29 21 -77.5t11 -114.5q0 -96 -24 -180.5t-72 -147.5t-120 -99.5t-168 -36.5q-8 0 -19 0.5t-22.5 1.5t-22 2.5l-17.5 2.5l-48 8q-11 -20 -23 -40.5t-12 -41.5q0 -30 29 -45t76.5 -23.5t108.5 -13.5t124 -13.5t124 -24.5 t108.5 -46t76.5 -78t29 -121q0 -72 -24.5 -123.5t-64 -87t-89 -57t-99.5 -33t-95 -15t-76 -3.5q-35 0 -87 1t-108.5 6.5t-113 17t-102 32.5t-73.5 53t-28 78zM259 -135q0 -24 22.5 -37t73.5 -16q52 -4 97 -5t93 -1q16 0 39 0.5t48 3.5t49.5 9t44 16.5t31.5 26.5t12 39 q0 17 -4 33q-13 75 -201 98l-211 25q-15 -11 -31.5 -31.5t-30.5 -46t-23 -55t-9 -59.5zM321 832q0 -48 7 -96.5t25 -87.5t49 -63.5t79 -24.5t79 24.5t49 63.5t25 87.5t7 96.5t-7 99t-25 93t-49 69t-79 27t-79 -27t-49 -69t-25 -93t-7 -99z" />
<glyph unicode="h" horiz-adv-x="1024" d="M128 0v1792h256v-650q64 58 115 90t90.5 46.5t69.5 17t53 2.5q42 0 76 -17.5t58 -46.5t37 -66.5t13 -76.5v-1091h-256v960q0 24 -1.5 47t-9.5 41t-26 29t-51 11q-49 0 -90.5 -22.5t-77.5 -52.5v-1013h-256z" />
<glyph unicode="i" horiz-adv-x="512" d="M128 0v1280h256v-1280h-256zM128 1472v256h256v-256h-256z" />
<glyph unicode="j" horiz-adv-x="537" d="M-12 -121q14 -3 33 -5t31 -2q48 0 74 18.5t38 43t14 49.5t2 38v1259h256v-1287q0 -77 -24 -135.5t-67 -98t-101.5 -59.5t-127.5 -20q-13 0 -29.5 1t-34 3t-34.5 5t-30 8v182zM180 1472v256h256v-256h-256z" />
<glyph unicode="k" horiz-adv-x="960" d="M128 0v1792h256v-985l320 473h256l-287 -447l287 -833h-256l-192 619l-128 -171v-448h-256z" />
<glyph unicode="l" horiz-adv-x="505" d="M128 0v1792h256v-1792h-256z" />
<glyph unicode="m" horiz-adv-x="1536" d="M128 0v1280h256v-145q21 25 51.5 53.5t70.5 53t89 40.5t108 16q37 0 68.5 -6t56 -24.5t42 -51.5t26.5 -87q48 63 95 97.5t89 50t77 18.5t59 3q72 0 111 -26.5t57 -74.5t21 -116t3 -150v-931h-256v934q0 34 -1 62t-7 48.5t-19 32t-37 11.5q-29 0 -56.5 -8.5t-52.5 -21 t-46 -28t-37 -28.5v-1002h-256v929q0 36 -1 65t-7 50t-19 32.5t-37 11.5q-30 0 -57.5 -8t-52 -20t-45.5 -26t-37 -27v-1007h-256z" />
<glyph unicode="n" horiz-adv-x="992" d="M128 0v1280h256v-138q64 58 115 90t90.5 46.5t69.5 17t53 2.5q42 0 76 -17.5t58 -46.5t37 -66.5t13 -76.5v-1091h-256v960q0 24 -1.5 47t-10.5 41t-28.5 29t-55.5 11q-49 0 -86.5 -22.5t-73.5 -52.5v-1013h-256z" />
<glyph unicode="o" horiz-adv-x="960" d="M96 448v384q0 32 2 79t12.5 98.5t33.5 103.5t65.5 93t108.5 66.5t162 25.5t162 -25.5t108.5 -66.5t65.5 -93t33.5 -103.5t12.5 -98.5t2 -79v-384q0 -32 -2 -79t-12.5 -98.5t-33.5 -103.5t-65.5 -93t-108.5 -66.5t-162 -25.5t-162 25.5t-108.5 66.5t-65.5 93t-33.5 103.5 t-12.5 98.5t-2 79zM352 448q0 -48 2 -94t14 -82t38 -58t74 -22t74 22t38 58t14 82t2 94v384q0 48 -2 94t-14 82t-38 58t-74 22t-74 -22t-38 -58t-14 -82t-2 -94v-384z" />
<glyph unicode="p" horiz-adv-x="1056" d="M128 -384v1664h256v-128q50 53 89.5 82.5t71 43.5t55.5 17t44 3q90 0 150.5 -38.5t97 -124.5t52.5 -223.5t16 -335.5q0 -58 -6.5 -124.5t-21 -132.5t-39 -127t-60 -107.5t-83.5 -74.5t-110 -28q-36 0 -71.5 11t-68 29.5t-62 42.5t-54.5 50v-499h-256zM384 244 q57 -33 109 -42.5t83 -9.5q39 0 64 26.5t39 86.5t19.5 158t5.5 241q0 84 -5.5 156.5t-22 126t-46 84t-77.5 30.5t-88.5 -20.5t-80.5 -44.5v-792z" />
<glyph unicode="q" horiz-adv-x="1056" d="M96 576q0 198 16 335.5t52.5 223.5t97 124.5t150.5 38.5q19 0 43.5 -3t56 -17t71 -43.5t89.5 -82.5v128h256v-1664h-256v499q-25 -26 -54.5 -50t-62 -42.5t-68 -29.5t-71.5 -11q-62 0 -110 28t-83.5 74.5t-60 107.5t-39 127t-21 132.5t-6.5 124.5zM352 704 q0 -143 5.5 -241t19.5 -158t39 -86.5t64 -26.5q31 0 83 9.5t109 42.5v792q-40 24 -80.5 44.5t-88.5 20.5t-77.5 -30.5t-46 -84t-22 -126t-5.5 -156.5z" />
<glyph unicode="r" horiz-adv-x="691" d="M128 0v1280h256v-171h14q19 37 46.5 71t62 60t74 42t82.5 16q3 0 12 -1t29 -3v-283q-32 13 -70 20.5t-72 7.5q-38 0 -70.5 -12.5t-56.5 -35.5t-37.5 -55.5t-13.5 -71.5v-864h-256z" />
<glyph unicode="s" horiz-adv-x="916" d="M84 320l192 64q11 -31 28.5 -64.5t41.5 -62t54 -47t68 -18.5q24 0 47 6.5t41 21.5t29 39.5t11 60.5q0 29 -6 52t-15.5 41.5t-21 32t-21.5 22.5l-256 192q-62 43 -100 83.5t-58.5 78t-27 72t-6.5 66.5q0 72 24 134t72 107t120 71t168 26t163 -33.5t112 -84.5t71 -110 t38 -110l-192 -64q-11 29 -27.5 62.5t-40.5 62.5t-54.5 48t-69.5 19q-24 0 -47 -6.5t-41 -21.5t-29 -39.5t-11 -60.5q0 -38 21.5 -65t42.5 -43l256 -192q91 -73 141.5 -155.5t50.5 -184.5q0 -72 -24 -134t-72 -107t-120 -71t-168 -26q-60 0 -108.5 14.5t-87 38t-67 54 t-49.5 62.5q-49 73 -72 169z" />
<glyph unicode="t" horiz-adv-x="669" d="M52 1088v192h128v448h256v-448h192v-192h-192v-747q0 -32 3 -59.5t13.5 -47.5t32 -31t57.5 -11q14 0 38.5 3t47.5 7v-208q-54 -7 -88 -9.5t-70 -2.5q-75 0 -125.5 17.5t-83 47.5t-49 69.5t-24 84t-8 91t-0.5 89.5v707h-128z" />
<glyph unicode="u" horiz-adv-x="1024" d="M128 189v1091h256v-1013q0 -42 25.5 -66t62.5 -24q24 0 46.5 8.5t43.5 21.5t40.5 29t37.5 31v1013h256v-1280h-256v138q-64 -58 -114 -89.5t-89.5 -46.5t-69.5 -17.5t-53 -2.5q-42 0 -76.5 17.5t-59 46t-37.5 66t-13 77.5z" />
<glyph unicode="v" horiz-adv-x="880" d="M24 1280h256l160 -960l160 960h256l-286 -1280h-258z" />
<glyph unicode="w" horiz-adv-x="1315" d="M38 1280h227l142 -972l134 972h234l136 -962l140 962h228l-248 -1280h-236l-136 882l-138 -882h-246z" />
<glyph unicode="x" horiz-adv-x="914" d="M41 0l256 640v64l-256 576h256l128 -384l32 -128l32 128l128 384h256l-256 -576v-64l256 -640h-256l-128 384l-32 128l-32 -128l-128 -384h-256z" />
<glyph unicode="y" horiz-adv-x="895" d="M45 1280h256l128 -704l33 -192l31 192l128 704h256l-320 -1344q-17 -74 -53.5 -123.5t-92 -79t-131 -41.5t-171.5 -12v192q59 0 100.5 14t67.5 38.5t37.5 58t11.5 73.5q0 17 -1.5 35t-6.5 37z" />
<glyph unicode="z" horiz-adv-x="830" d="M64 0v192l448 896h-384v192h640v-192l-448 -896h448v-192h-704z" />
<glyph unicode="{" horiz-adv-x="704" d="M64 768v256q39 0 63.5 17t39 60.5t20 118t5.5 188.5q0 103 13 176t38.5 123t63.5 79.5t87.5 45t111 20t134.5 4.5v-192q-57 0 -94 -5t-58.5 -30t-30.5 -76.5t-9 -144.5q0 -137 -19.5 -229t-48.5 -150.5t-62.5 -89t-61.5 -43.5q28 -12 62 -37t62.5 -70t48 -112.5 t19.5 -164.5q0 -114 9 -188.5t30.5 -118t58.5 -60.5t94 -17v-192q-109 0 -192.5 24t-140.5 88.5t-86 176t-29 287.5q0 93 -5.5 144.5t-20 76.5t-39 30t-63.5 5z" />
<glyph unicode="|" horiz-adv-x="384" d="M128 -128v2048h192v-2048h-192z" />
<glyph unicode="}" horiz-adv-x="704" d="M64 -64v192q57 0 94 17t58.5 60.5t30.5 118t9 188.5q0 96 19 163.5t47.5 112.5t62.5 70.5t63 37.5q-29 13 -62.5 44t-62.5 90t-48 151t-19 227q0 93 -9 144.5t-30.5 76.5t-58.5 30t-94 5v192q73 0 134.5 -4.5t111 -20t87.5 -45t63.5 -79.5t38.5 -123t13 -176 q0 -114 5.5 -188.5t20 -118t39 -60.5t63.5 -17v-256q-39 0 -63.5 -5t-39 -30t-20 -76.5t-5.5 -144.5q0 -176 -29 -287.5t-86 -176t-140.5 -88.5t-192.5 -24z" />
<glyph unicode="~" horiz-adv-x="960" d="M127 846q0 15 2.5 40t11 53.5t23 58t39 53.5t60 39t84.5 15q39 0 78.5 -13.5t76.5 -29.5t69.5 -29.5t56.5 -13.5q23 0 37 15.5t14 53.5h153q0 -2 0.5 -5.5t0.5 -8.5q0 -15 -2.5 -40t-11 -54t-23 -59t-39 -54t-60 -39.5t-84.5 -15.5q-42 0 -83 13.5t-77.5 30t-68 30 t-55.5 13.5q-23 0 -35.5 -14.5t-12.5 -52.5h-153q-1 2 -1 14z" />
<glyph unicode="&#xa1;" horiz-adv-x="384" d="M64 0l64 1152h128v-1152h-192zM64 1280v256h256v-256h-256z" />
<glyph unicode="&#xa2;" horiz-adv-x="1027" d="M129 532v201q0 62 3 126t14.5 123.5t34 112.5t61 94.5t96.5 69t141 35.5v114h78v-114q87 -10 146 -41.5t96.5 -75t57.5 -94t29 -98.5t10 -89t1 -65l-256 1q0 37 -1.5 74t-9 69.5t-25 58t-48.5 39.5v-866q31 15 48.5 41.5t25 61t9 76t1.5 87.5h256q0 -3 0.5 -14.5 t0.5 -28.5q0 -28 -3.5 -69.5t-15.5 -88t-34.5 -93.5t-60 -87t-93.5 -68.5t-134 -37.5v-114h-78v113q-83 7 -141 30.5t-96.5 61t-61 86.5t-34 107.5t-14.5 124.5t-3 137zM385 640q0 -105 1.5 -180.5t10.5 -127.5t28 -82t54 -44v865q-35 -17 -54 -50.5t-28 -86.5t-10.5 -126 t-1.5 -168z" />
<glyph unicode="&#xa3;" horiz-adv-x="896" d="M0 0v128l128 63v577h-128v192h128v192q0 64 2 137.5t12.5 146.5t33.5 141t65.5 119.5t108.5 82.5t162 31q83 0 139 -25.5t92 -67t54 -93t26 -103.5t8.5 -98.5t0.5 -78.5h-192q0 16 -0.5 41t-3.5 53.5t-10.5 57.5t-22 52t-36.5 37.5t-55 14.5q-48 0 -74 -34t-38 -94 t-14 -142t-2 -178v-192h256v-192h-256v-576h448v-192h-832z" />
<glyph unicode="&#xa4;" horiz-adv-x="1024" d="M105 579l86 86q-33 51 -48 110t-15 122q0 61 15 120t48 110l-86 86l90 90l86 -86q45 29 101.5 46t129.5 17t129.5 -17t101.5 -46l86 86l90 -90l-87 -87q33 -51 48.5 -109.5t15.5 -119.5q0 -63 -15.5 -122t-48.5 -110l87 -86l-90 -90l-86 86q-45 -29 -101.5 -46 t-129.5 -17t-129.5 17t-101.5 46l-86 -86zM320 897q0 -40 11 -78.5t34.5 -69t60 -49t86.5 -18.5t86.5 18.5t60 48.5t34.5 68.5t11 78.5t-11 78.5t-34.5 68.5t-59.5 48.5t-87 18.5t-87 -18t-59.5 -48t-34.5 -68.5t-11 -78.5z" />
<glyph unicode="&#xa5;" horiz-adv-x="1024" d="M48 1792h260l204 -944l202 944h260l-295 -1073h153v-166h-192v-129h192v-168h-192v-256h-256v256h-192v168h192v129h-192v166h149z" />
<glyph unicode="&#xa6;" horiz-adv-x="395" d="M94 -14v628h203v-628h-203zM94 889v629h203v-629h-203z" />
<glyph unicode="&#xa7;" horiz-adv-x="960" d="M96 321l192 64q11 -31 28.5 -64.5t41.5 -62t54.5 -47t67.5 -18.5q24 0 47 6.5t41 21.5t29 39.5t11 60.5q0 58 -20.5 96t-43.5 52l-256 156q-65 39 -103 79t-58 78.5t-25.5 74.5t-5.5 68q0 102 46 180.5t140 120.5q-60 35 -97 68t-56.5 64t-26 59.5t-6.5 54.5q0 72 24 134 t72 107t120 71t168 26q95 0 162.5 -33.5t112.5 -84.5t71 -110t38 -110l-192 -64q-11 29 -27.5 62.5t-40 62.5t-54.5 48t-70 19q-24 0 -47 -6.5t-41 -21.5t-29 -39.5t-11 -60.5q0 -38 21.5 -65t42.5 -43q147 -81 235.5 -147.5t135.5 -124t62 -108.5t15 -102 q0 -94 -39.5 -167.5t-118.5 -118.5q75 -60 116.5 -127t41.5 -148q0 -72 -24 -134t-72 -107t-120 -71t-168 -26q-60 0 -108.5 14.5t-87 38t-67 54t-49.5 62.5q-50 74 -72 169zM352 925q0 -38 21 -66t43 -42l96 -63q15 7 32 18t31.5 26.5t23.5 36t9 47.5q0 23 -15.5 48.5 t-39 50.5t-51.5 49t-54 44q-15 -9 -31.5 -22.5t-31 -32t-24 -42t-9.5 -52.5z" />
<glyph unicode="&#xa8;" horiz-adv-x="896" d="M128 1536v256h256v-256h-256zM512 1536v256h256v-256h-256z" />
<glyph unicode="&#xa9;" horiz-adv-x="1528" d="M70 700q0 99 25 190.5t70 171t108.5 144.5t140.5 111.5t165.5 72t184.5 25.5t184.5 -25.5t165.5 -72t140.5 -111.5t108.5 -144.5t70 -171t25 -190.5t-25 -190t-70 -170.5t-108.5 -144.5t-140.5 -111.5t-165.5 -72t-184.5 -25.5t-184.5 25.5t-165.5 72t-140.5 111.5 t-108.5 144.5t-70 170.5t-25 190zM242 696q0 -117 41 -219.5t111.5 -179t166 -120.5t203.5 -44t203.5 44t166 120.5t111.5 179t41 219.5q0 78 -18.5 150t-52.5 135t-81.5 114t-105.5 88t-125 57t-139 20t-139 -20t-125 -57t-105.5 -88t-81.5 -114t-52.5 -135t-18.5 -150z M475 723q0 53 2 107t11 105t27.5 95.5t51.5 78t83.5 52.5t123.5 19q70 0 118.5 -20t79.5 -52t48 -71t24.5 -76.5t9 -70t1.5 -50.5h-183q0 45 -4.5 81.5t-16 62t-30 39t-45.5 13.5q-35 0 -58.5 -7.5t-37.5 -39t-19.5 -94.5t-5.5 -174q0 -99 2.5 -167t14 -110t34 -60.5 t62.5 -18.5q37 0 58.5 20t32 51.5t13 69t2.5 72.5h179v-16q0 -18 -2.5 -50.5t-11.5 -71t-27 -78t-49.5 -72t-79 -53t-115.5 -20.5q-73 0 -123.5 20.5t-83 56t-50 83.5t-25.5 104.5t-9.5 118t-1.5 123.5z" />
<glyph unicode="&#xaa;" horiz-adv-x="842" d="M53 838q0 28 4 54t17 50.5t38 48.5t66.5 48.5t103 49.5t148.5 52v94q0 48 -8 75.5t-20 41.5t-25 18t-23 4q-49 0 -69.5 -41t-20.5 -110h-178q1 70 22 124.5t57 92.5t85.5 58t107.5 20q79 0 130.5 -21.5t81.5 -64.5t41.5 -107t11.5 -149v-293q0 -50 0.5 -84t2 -59t4 -44.5 t7.5 -40.5h-191l-16 111q-35 -65 -84.5 -93t-99.5 -28q-38 0 -73 14.5t-61.5 40t-42.5 61t-16 77.5zM248 883q0 -45 21 -64.5t50 -19.5q31 0 62.5 20t48.5 55v189q-91 -50 -136.5 -90.5t-45.5 -89.5z" />
<glyph unicode="&#xab;" horiz-adv-x="1024" d="M64 576v128l448 512v-320l-256 -255l256 -257v-320zM512 576v128l448 512v-320l-256 -255l256 -257v-320z" />
<glyph unicode="&#xac;" horiz-adv-x="768" d="M128 448v192h512v-384h-128v192h-384z" />
<glyph unicode="&#xad;" horiz-adv-x="768" d="M128 448v192h512v-192h-512z" />
<glyph unicode="&#xae;" horiz-adv-x="1528" d="M70 700q0 99 25 190.5t70 171t108.5 144.5t140.5 111.5t165.5 72t184.5 25.5t184.5 -25.5t165.5 -72t140.5 -111.5t108.5 -144.5t70 -171t25 -190.5t-25 -190t-70 -170.5t-108.5 -144.5t-140.5 -111.5t-165.5 -72t-184.5 -25.5t-184.5 25.5t-165.5 72t-140.5 111.5 t-108.5 144.5t-70 170.5t-25 190zM242 696q0 -117 41 -219.5t111.5 -179t166 -120.5t203.5 -44t203.5 44t166 120.5t111.5 179t41 219.5q0 78 -18.5 150t-52.5 135t-81.5 114t-105.5 88t-125 57t-139 20t-139 -20t-125 -57t-105.5 -88t-81.5 -114t-52.5 -135t-18.5 -150z M516 248v919h240q79 0 131 -21.5t83 -59t43.5 -87t12.5 -106.5q0 -51 -11 -87.5t-29 -62.5t-40.5 -43.5t-44.5 -29.5v-2q0 -10 6 -33t22.5 -69.5t45 -123t74.5 -194.5h-168l-127 385h-82v-385h-156zM672 729h33q39 0 69 4.5t50.5 21t31 50t10.5 92.5q0 78 -30 115t-93 37 h-71v-320z" />
<glyph unicode="&#xaf;" horiz-adv-x="640" d="M123 1407v152h434v-152h-434z" />
<glyph unicode="&#xb0;" horiz-adv-x="1024" d="M128 1427q0 72 21 140.5t67.5 122.5t119 87t176.5 33q103 0 176 -33t119 -87t67.5 -122.5t21.5 -140.5t-21.5 -141.5t-67.5 -123.5t-119 -87t-176 -33t-176 33t-119 87t-67.5 123.5t-21.5 141.5zM320 1427q0 -40 11 -78.5t34.5 -69t60 -49t86.5 -18.5t86.5 18.5t60 48.5 t34.5 68.5t11 78.5t-11 78.5t-34.5 68.5t-59.5 48.5t-87 18.5t-87 -18t-59.5 -48t-34.5 -68.5t-11 -78.5z" />
<glyph unicode="&#xb1;" horiz-adv-x="832" d="M128 0v192h576v-192h-576zM128 576v192h192v192h192v-192h192v-192h-192v-192h-192v192h-192z" />
<glyph unicode="&#xb2;" horiz-adv-x="640" d="M64 576v128l192 256q36 48 60.5 85t39.5 67t21.5 55t6.5 49t-1 47t-7 41t-19 29t-37 11t-37 -11t-19 -29t-7 -41t-1 -47h-192q0 48 13 94t43 82t79 58t121 22t121 -22t79 -58t43 -82t13 -94t-23 -98t-65 -110t-101 -134t-131 -170h320v-128h-512z" />
<glyph unicode="&#xb3;" horiz-adv-x="768" d="M128 896h192q0 -24 1 -47t7 -41t19 -29t37 -11t37 11t19 29t7 41t1 47t-2 47t-14 41t-38 29t-74 11v128q48 0 74 11t38 29t14 41t2 47t-1 47t-7 41t-19 29t-37 11t-37 -11t-19 -29t-7 -41t-1 -47h-192q0 48 13 94t43 82t79 58t121 22t121 -22t79 -58t43 -82t13 -94 q0 -57 -19 -94t-48 -58t-62.5 -30t-62.5 -10q29 -2 62.5 -10.5t62.5 -29.5t48 -58t19 -94q0 -48 -13 -94t-43 -82t-79 -58t-121 -22t-121 22t-79 58t-43 82t-13 94z" />
<glyph unicode="&#xb4;" horiz-adv-x="640" d="M128 1408l128 384h256l-256 -384h-128z" />
<glyph unicode="&#xb5;" horiz-adv-x="1024" d="M128 -256v1536h256v-1013q0 -42 25.5 -66t62.5 -24q24 0 46.5 8.5t43.5 21.5t40.5 29t37.5 31v1013h256v-1280h-256v138q-19 -42 -50 -68.5t-66.5 -41.5t-72.5 -21t-67 -7v-256h-256z" />
<glyph unicode="&#xb6;" horiz-adv-x="952" d="M16 1204q0 158 100.5 245t306.5 87h473v-1536h-178v876h-139v-876h-197v876q-77 0 -143.5 21.5t-116 63t-78 102.5t-28.5 141z" />
<glyph unicode="&#xb8;" horiz-adv-x="576" d="M64 -384q72 0 121 1t79 7t43 19t13 37q0 19 -19 37.5t-47.5 35t-62 30.5t-63.5 25v192h128v-128q40 -11 85 -28t83 -41t63 -54.5t25 -68.5q0 -72 -34 -111t-94 -57t-142 -21t-178 -3v128z" />
<glyph unicode="&#xb9;" horiz-adv-x="512" d="M64 1216v128q48 24 86 47t68.5 46.5t55.5 48t46 50.5h64v-896h-192v576h-128z" />
<glyph unicode="&#xba;" horiz-adv-x="899" d="M-1 410v319q0 96 17 174t57.5 133.5t108 86t168.5 30.5q93 0 159.5 -31.5t109 -88t62 -134.5t19.5 -170v-319q0 -92 -19.5 -170t-62 -134.5t-109 -88t-159.5 -31.5q-101 0 -168.5 30t-108 85.5t-57.5 134t-17 174.5zM212 451q0 -87 9 -139.5t26 -80t41.5 -36.5t56.5 -9 q33 0 57.5 8.5t40.5 36t23.5 80t7.5 140.5v237q0 88 -7.5 140t-23.5 79.5t-40.5 36t-57.5 8.5q-32 0 -56.5 -8.5t-41.5 -36.5t-26 -80t-9 -139v-237z" />
<glyph unicode="&#xbb;" horiz-adv-x="1024" d="M64 64v320l256 257l-256 255v320l448 -512v-128zM512 64v320l256 257l-256 255v320l448 -512v-128z" />
<glyph unicode="&#xbc;" horiz-adv-x="1601" d="M64 1216v128q48 24 86 47t68.5 46.5t55.5 48t46 50.5h64v-896h-192v576h-128zM320 0l575 1792h257l-576 -1792h-256zM896 259v128l340 576h172v-576h128v-128h-128v-256h-192v256h-320zM1088 387h128v256z" />
<glyph unicode="&#xbd;" horiz-adv-x="1600" d="M64 1216v128q48 24 86 47t68.5 46.5t55.5 48t46 50.5h64v-896h-192v576h-128zM320 0l575 1792h257l-576 -1792h-256zM1024 3v128l192 256q36 48 60.5 85t39.5 67t21.5 55t6.5 49t-1 47t-7 41t-19 29t-37 11t-37 -11t-19 -29t-7 -41t-1 -47h-192q0 48 13 94t43 82t79 58 t121 22t121 -22t79 -58t43 -82t13 -94t-23 -98t-65 -110t-101 -134t-131 -170h320v-128h-512z" />
<glyph unicode="&#xbe;" horiz-adv-x="1793" d="M128 896h192q0 -24 1 -47t7 -41t19 -29t37 -11t37 11t19 29t7 41t1 47t-2 47t-14 41t-38 29t-74 11v128q48 0 74 11t38 29t14 41t2 47t-1 47t-7 41t-19 29t-37 11t-37 -11t-19 -29t-7 -41t-1 -47h-192q0 48 13 94t43 82t79 58t121 22t121 -22t79 -58t43 -82t13 -94 q0 -57 -19 -94t-48 -58t-62.5 -30t-62.5 -10q29 -2 62.5 -10.5t62.5 -29.5t48 -58t19 -94q0 -48 -13 -94t-43 -82t-79 -58t-121 -22t-121 22t-79 58t-43 82t-13 94zM448 0l575 1792h257l-576 -1792h-256zM1024 259v128l340 576h172v-576h128v-128h-128v-256h-192v256h-320z M1216 387h128v256z" />
<glyph unicode="&#xbf;" horiz-adv-x="891" d="M80 346q0 37 11.5 76.5t30.5 79t43 78t49 73.5q58 81 135 159v217h216v-245q0 -1 -18.5 -24.5t-45.5 -61t-59.5 -85.5t-59.5 -98.5t-45.5 -99t-18.5 -87.5q0 -56 25 -91t87 -35q44 0 71.5 19t43 49.5t21 70t5.5 80.5h219v-25q0 -84 -21 -157.5t-65 -127.5t-112 -85 t-162 -31q-99 0 -166.5 26.5t-108 73.5t-58 111.5t-17.5 139.5zM343 1106v223h221v-223h-221z" />
<glyph unicode="&#xc0;" d="M64 0l384 1792h256l384 -1792h-256l-96 448h-320l-96 -448h-256zM384 2304h256l128 -384h-128zM448 640h256l-128 768z" />
<glyph unicode="&#xc1;" d="M64 0l384 1792h256l384 -1792h-256l-96 448h-320l-96 -448h-256zM384 1920l128 384h256l-256 -384h-128zM448 640h256l-128 768z" />
<glyph unicode="&#xc2;" d="M64 0l384 1792h256l384 -1792h-256l-96 448h-320l-96 -448h-256zM258 1920l192 384h256l192 -384h-192l-128 256l-128 -256h-192zM448 640h256l-128 768z" />
<glyph unicode="&#xc3;" d="M64 0l384 1792h256l384 -1792h-256l-96 448h-320l-96 -448h-256zM223 1998q0 15 2.5 40t11 53.5t23 58t39 53.5t60 39t84.5 15q39 0 78.5 -13.5t76.5 -29.5t69.5 -29.5t56.5 -13.5q23 0 37 15.5t14 53.5h153q0 -2 0.5 -5.5t0.5 -8.5q0 -15 -2.5 -40t-11 -54t-23 -59 t-39 -54t-60 -39.5t-84.5 -15.5q-42 0 -83 13.5t-77.5 30t-68 30t-55.5 13.5q-23 0 -35.5 -14.5t-12.5 -52.5h-153q-1 2 -1 14zM448 640h256l-128 768z" />
<glyph unicode="&#xc4;" d="M64 0l384 1792h256l384 -1792h-256l-96 448h-320l-96 -448h-256zM256 1920v256h256v-256h-256zM448 640h256l-128 768zM640 1920v256h256v-256h-256z" />
<glyph unicode="&#xc5;" d="M64 0l384 1792h256l384 -1792h-256l-96 448h-320l-96 -448h-256zM320 2176q0 48 15.5 94t47 82t80 58t113.5 22t113.5 -22t80 -58t47 -82t15.5 -94t-15.5 -94t-47 -82t-80 -58t-113.5 -22t-113.5 22t-80 58t-47 82t-15.5 94zM448 640h256l-128 768zM448 2176q0 -24 7 -47 t22 -41t39.5 -29t59.5 -11q34 0 58.5 11t40 29t22.5 41t7 47t-7 47t-22.5 41t-40 29t-58.5 11q-35 0 -59 -11t-39.5 -29t-22.5 -41t-7 -47z" />
<glyph unicode="&#xc6;" horiz-adv-x="1408" d="M-126 0l764 1792h706v-192h-448v-576h320v-192h-320v-640h448v-192h-704v448h-320l-191 -448h-255zM393 640h247v658z" />
<glyph unicode="&#xc7;" horiz-adv-x="1216" d="M128 641v511q0 144 26 265t86 208t158 136t242 49q136 0 233.5 -43.5t159 -121.5t90.5 -187.5t29 -241.5h-256q0 96 -13 168t-43 120t-79 72t-121 24t-121 -24t-79 -72t-43 -120t-13 -168v-640q0 -72 13 -141t43 -123t79 -87t121 -33t121 33t79 87t43 123t13 141v64h256 v-64q0 -120 -26 -228t-86 -189t-158 -129t-242 -48t-242 49t-158 136.5t-86 208.5t-26 265zM512 -384q72 0 121 1t79 7t43 19t13 37q0 19 -19 37.5t-47.5 35t-62 30.5t-63.5 25v192h128v-128q40 -11 85 -28t83 -41t63 -54.5t25 -68.5q0 -72 -34 -111t-94 -57t-142 -21 t-178 -3v128z" />
<glyph unicode="&#xc8;" horiz-adv-x="960" d="M128 0v1792h704v-192h-448v-576h320v-192h-320v-640h448v-192h-704zM288 2304h256l128 -384h-128z" />
<glyph unicode="&#xc9;" horiz-adv-x="960" d="M128 0v1792h704v-192h-448v-576h320v-192h-320v-640h448v-192h-704zM288 1920l128 384h256l-256 -384h-128z" />
<glyph unicode="&#xca;" horiz-adv-x="960" d="M128 0v1792h704v-192h-448v-576h320v-192h-320v-640h448v-192h-704zM162 1920l192 384h256l192 -384h-192l-128 256l-128 -256h-192z" />
<glyph unicode="&#xcb;" horiz-adv-x="960" d="M128 0v1792h704v-192h-448v-576h320v-192h-320v-640h448v-192h-704zM160 2048v256h256v-256h-256zM544 2048v256h256v-256h-256z" />
<glyph unicode="&#xcc;" horiz-adv-x="512" d="M67 2304h256l128 -384h-128zM130 0v1792h256v-1792h-256z" />
<glyph unicode="&#xcd;" horiz-adv-x="512" d="M67 1920l128 384h256l-256 -384h-128zM130 0v1792h256v-1792h-256z" />
<glyph unicode="&#xce;" horiz-adv-x="512" d="M-59 1920l192 384h256l192 -384h-192l-128 256l-128 -256h-192zM130 0v1792h256v-1792h-256z" />
<glyph unicode="&#xcf;" horiz-adv-x="512" d="M-61 2048v256h256v-256h-256zM130 0v1792h256v-1792h-256zM323 2048v256h256v-256h-256z" />
<glyph unicode="&#xd0;" d="M64 832v192h64v768h384q144 0 242 -26t158 -86t86 -158t26 -242v-704q0 -144 -26 -252t-86 -180t-158.5 -108t-243.5 -36h-382v832h-64zM384 192h128q96 0 148 25t76 79t28 139t4 205v576q0 96 -4 168t-28.5 120t-77.5 72t-151 24h-123v-576h64v-192h-64v-640z" />
<glyph unicode="&#xd1;" d="M128 0v1792h192l448 -1108v1108h256v-1792h-182l-458 1192v-1192h-256zM223 1998q0 15 2.5 40t11 53.5t23 58t39 53.5t60 39t84.5 15q39 0 78.5 -13.5t76.5 -29.5t69.5 -29.5t56.5 -13.5q23 0 37 15.5t14 53.5h153q0 -2 0.5 -5.5t0.5 -8.5q0 -15 -2.5 -40t-11 -54 t-23 -59t-39 -54t-60 -39.5t-84.5 -15.5q-42 0 -83 13.5t-77.5 30t-68 30t-55.5 13.5q-23 0 -35.5 -14.5t-12.5 -52.5h-153q-1 2 -1 14z" />
<glyph unicode="&#xd2;" horiz-adv-x="1280" d="M128 576v640q0 80 10 155t33.5 141t62.5 121t95.5 94t133.5 61t177 22q147 0 245.5 -48t157.5 -129t84 -189t25 -228v-640q0 -120 -25 -228t-84 -189t-157.5 -129t-245.5 -48q-100 0 -177 22t-133.5 61t-95.5 94t-62.5 121t-33.5 141t-10 155zM384 512q0 -72 13 -131 t43 -101t79 -65t121 -23t121 23t79 65t43 101t13 131v768q0 72 -13 131t-43 101t-79 65t-121 23t-121 -23t-79 -65t-43 -101t-13 -131v-768zM448 2304h256l128 -384h-128z" />
<glyph unicode="&#xd3;" horiz-adv-x="1280" d="M128 576v640q0 80 10 155t33.5 141t62.5 121t95.5 94t133.5 61t177 22q147 0 245.5 -48t157.5 -129t84 -189t25 -228v-640q0 -120 -25 -228t-84 -189t-157.5 -129t-245.5 -48q-100 0 -177 22t-133.5 61t-95.5 94t-62.5 121t-33.5 141t-10 155zM384 512q0 -72 13 -131 t43 -101t79 -65t121 -23t121 23t79 65t43 101t13 131v768q0 72 -13 131t-43 101t-79 65t-121 23t-121 -23t-79 -65t-43 -101t-13 -131v-768zM448 1920l128 384h256l-256 -384h-128z" />
<glyph unicode="&#xd4;" horiz-adv-x="1280" d="M128 576v640q0 80 10 155t33.5 141t62.5 121t95.5 94t133.5 61t177 22q147 0 245.5 -48t157.5 -129t84 -189t25 -228v-640q0 -120 -25 -228t-84 -189t-157.5 -129t-245.5 -48q-100 0 -177 22t-133.5 61t-95.5 94t-62.5 121t-33.5 141t-10 155zM322 1920l192 384h256 l192 -384h-192l-128 256l-128 -256h-192zM384 512q0 -72 13 -131t43 -101t79 -65t121 -23t121 23t79 65t43 101t13 131v768q0 72 -13 131t-43 101t-79 65t-121 23t-121 -23t-79 -65t-43 -101t-13 -131v-768z" />
<glyph unicode="&#xd5;" horiz-adv-x="1280" d="M128 576v640q0 80 10 155t33.5 141t62.5 121t95.5 94t133.5 61t177 22q147 0 245.5 -48t157.5 -129t84 -189t25 -228v-640q0 -120 -25 -228t-84 -189t-157.5 -129t-245.5 -48q-100 0 -177 22t-133.5 61t-95.5 94t-62.5 121t-33.5 141t-10 155zM287 1998q0 15 2.5 40 t11 53.5t23 58t39 53.5t60 39t84.5 15q39 0 78.5 -13.5t76.5 -29.5t69.5 -29.5t56.5 -13.5q23 0 37 15.5t14 53.5h153q0 -2 0.5 -5.5t0.5 -8.5q0 -15 -2.5 -40t-11 -54t-23 -59t-39 -54t-60 -39.5t-84.5 -15.5q-42 0 -83 13.5t-77.5 30t-68 30t-55.5 13.5q-23 0 -35.5 -14.5 t-12.5 -52.5h-153q-1 2 -1 14zM384 512q0 -72 13 -131t43 -101t79 -65t121 -23t121 23t79 65t43 101t13 131v768q0 72 -13 131t-43 101t-79 65t-121 23t-121 -23t-79 -65t-43 -101t-13 -131v-768z" />
<glyph unicode="&#xd6;" horiz-adv-x="1280" d="M128 576v640q0 80 10 155t33.5 141t62.5 121t95.5 94t133.5 61t177 22q147 0 245.5 -48t157.5 -129t84 -189t25 -228v-640q0 -120 -25 -228t-84 -189t-157.5 -129t-245.5 -48q-100 0 -177 22t-133.5 61t-95.5 94t-62.5 121t-33.5 141t-10 155zM320 2048v256h256v-256 h-256zM384 512q0 -72 13 -131t43 -101t79 -65t121 -23t121 23t79 65t43 101t13 131v768q0 72 -13 131t-43 101t-79 65t-121 23t-121 -23t-79 -65t-43 -101t-13 -131v-768zM704 2048v256h256v-256h-256z" />
<glyph unicode="&#xd7;" horiz-adv-x="768" d="M64 448l192 192l-192 192l128 128l192 -192l192 192l128 -128l-192 -192l192 -192l-128 -128l-192 192l-192 -192z" />
<glyph unicode="&#xd8;" horiz-adv-x="1280" d="M128 576v640q0 80 10 155t33.5 141t62.5 121t95.5 94t133.5 61t177 22q89 0 160 -18l32 128h128l-44 -175q67 -39 112 -94.5t72.5 -123.5t39.5 -147t12 -164v-640q0 -120 -25 -228t-84 -189t-157.5 -129t-245.5 -48q-90 0 -160 18l-32 -128h-128l43 172l-34 21 q-57 39 -95.5 94t-62 121t-33.5 141t-10 155zM384 512q0 -65 10 -119t33 -93l320 1283q-46 17 -107 17q-72 0 -121 -23t-79 -65t-43 -101t-13 -131v-768zM532 209q46 -17 108 -17q72 0 121 23t79 65t43 101t13 131v768q0 64 -10 117t-33 95z" />
<glyph unicode="&#xd9;" horiz-adv-x="1280" d="M128 640v1152h256v-1152q0 -48 1 -100t8.5 -101.5t22.5 -94.5t43.5 -78.5t72.5 -53.5t108 -20t108 20t72.5 53.5t43.5 78.5t22.5 94.5t8.5 101.5t1 100v1152h256v-1152q0 -80 -7 -160t-26.5 -153t-54.5 -136.5t-92 -110t-138.5 -73t-193.5 -26.5t-193.5 26.5t-138.5 73 t-92 110t-54.5 136.5t-26.5 153t-7 160zM448 2304h256l128 -384h-128z" />
<glyph unicode="&#xda;" horiz-adv-x="1280" d="M128 640v1152h256v-1152q0 -48 1 -100t8.5 -101.5t22.5 -94.5t43.5 -78.5t72.5 -53.5t108 -20t108 20t72.5 53.5t43.5 78.5t22.5 94.5t8.5 101.5t1 100v1152h256v-1152q0 -80 -7 -160t-26.5 -153t-54.5 -136.5t-92 -110t-138.5 -73t-193.5 -26.5t-193.5 26.5t-138.5 73 t-92 110t-54.5 136.5t-26.5 153t-7 160zM448 1920l128 384h256l-256 -384h-128z" />
<glyph unicode="&#xdb;" horiz-adv-x="1280" d="M128 640v1152h256v-1152q0 -48 1 -100t8.5 -101.5t22.5 -94.5t43.5 -78.5t72.5 -53.5t108 -20t108 20t72.5 53.5t43.5 78.5t22.5 94.5t8.5 101.5t1 100v1152h256v-1152q0 -80 -7 -160t-26.5 -153t-54.5 -136.5t-92 -110t-138.5 -73t-193.5 -26.5t-193.5 26.5t-138.5 73 t-92 110t-54.5 136.5t-26.5 153t-7 160zM322 1920l192 384h256l192 -384h-192l-128 256l-128 -256h-192z" />
<glyph unicode="&#xdc;" horiz-adv-x="1280" d="M128 640v1152h256v-1152q0 -48 1 -100t8.5 -101.5t22.5 -94.5t43.5 -78.5t72.5 -53.5t108 -20t108 20t72.5 53.5t43.5 78.5t22.5 94.5t8.5 101.5t1 100v1152h256v-1152q0 -80 -7 -160t-26.5 -153t-54.5 -136.5t-92 -110t-138.5 -73t-193.5 -26.5t-193.5 26.5t-138.5 73 t-92 110t-54.5 136.5t-26.5 153t-7 160zM320 2048v256h256v-256h-256zM704 2048v256h256v-256h-256z" />
<glyph unicode="&#xdd;" horiz-adv-x="1082" d="M29 1792h256l256 -896l256 896h256l-384 -1216v-576h-256v576zM349 1920l128 384h256l-256 -384h-128z" />
<glyph unicode="&#xde;" horiz-adv-x="952" d="M72 0v1536h252v-255h180q103 0 179.5 -31t127 -89.5t75.5 -143t25 -191.5q0 -108 -28 -190.5t-82 -138.5t-133.5 -85t-182.5 -29q-7 0 -14 0.5t-14 0.5h-131v-384h-254zM324 601h45q64 0 115.5 8t88 32t56.5 68.5t20 118.5q0 64 -14 108t-44 71t-77 39t-113 12h-77v-457z " />
<glyph unicode="&#xdf;" d="M128 0v1354q0 123 33 209.5t87 141.5t123 80t141 25q96 0 166.5 -21t120.5 -57t81 -83t49 -99t24.5 -105t6.5 -101q0 -144 -51.5 -242.5t-167.5 -162.5q58 -16 109.5 -51t90 -88.5t61 -125.5t22.5 -162q0 -120 -26 -218t-86 -167t-158 -107t-242 -38v210q72 0 121 14 t79 50t43 98t13 158q0 148 -67.5 224t-188.5 76v212q48 0 85.5 23t62.5 65t38 101t13 131q0 61 -7.5 108.5t-26 80.5t-51 50t-82.5 17q-48 0 -79 -16.5t-49 -47.5t-25 -75.5t-7 -101.5v-1359h-256z" />
<glyph unicode="&#xe0;" horiz-adv-x="973" d="M96 283q0 49 5 94t23 87.5t51.5 83.5t90.5 82.5t140.5 84.5t201.5 89v92q0 66 -11 106.5t-29 62t-41 28.5t-47 7t-47 -7.5t-41 -29.5t-29 -62t-11 -105h-256q1 91 28.5 165.5t77.5 127t120.5 81t157.5 28.5q103 0 175.5 -36t119 -93t68 -129t21.5 -144v-576 q0 -117 9.5 -193.5t23.5 -126.5h-255l-34 192q-24 -48 -49 -87t-55 -66t-67 -42t-85 -15t-94 25t-82 67t-58 96t-22 113zM175 1792h256l128 -384h-128zM352 351q0 -48 11 -78.5t29 -48.5t41 -25t47 -7q19 0 37.5 9t35 22.5t30.5 30.5t25 32v354q-65 -43 -113 -77t-79.5 -67 t-47.5 -67.5t-16 -77.5z" />
<glyph unicode="&#xe1;" horiz-adv-x="973" d="M96 283q0 49 5 94t23 87.5t51.5 83.5t90.5 82.5t140.5 84.5t201.5 89v92q0 66 -11 106.5t-29 62t-41 28.5t-47 7t-47 -7.5t-41 -29.5t-29 -62t-11 -105h-256q1 91 28.5 165.5t77.5 127t120.5 81t157.5 28.5q103 0 175.5 -36t119 -93t68 -129t21.5 -144v-576 q0 -117 9.5 -193.5t23.5 -126.5h-255l-34 192q-24 -48 -49 -87t-55 -66t-67 -42t-85 -15t-94 25t-82 67t-58 96t-22 113zM352 351q0 -48 11 -78.5t29 -48.5t41 -25t47 -7q19 0 37.5 9t35 22.5t30.5 30.5t25 32v354q-65 -43 -113 -77t-79.5 -67t-47.5 -67.5t-16 -77.5z M399 1408l128 384h256l-256 -384h-128z" />
<glyph unicode="&#xe2;" horiz-adv-x="973" d="M96 283q0 49 5 94t23 87.5t51.5 83.5t90.5 82.5t140.5 84.5t201.5 89v92q0 66 -11 106.5t-29 62t-41 28.5t-47 7t-47 -7.5t-41 -29.5t-29 -62t-11 -105h-256q1 91 28.5 165.5t77.5 127t120.5 81t157.5 28.5q103 0 175.5 -36t119 -93t68 -129t21.5 -144v-576 q0 -117 9.5 -193.5t23.5 -126.5h-255l-34 192q-24 -48 -49 -87t-55 -66t-67 -42t-85 -15t-94 25t-82 67t-58 96t-22 113zM159 1408l192 384h256l192 -384h-192l-128 256l-128 -256h-192zM352 351q0 -48 11 -78.5t29 -48.5t41 -25t47 -7q19 0 37.5 9t35 22.5t30.5 30.5t25 32 v354q-65 -43 -113 -77t-79.5 -67t-47.5 -67.5t-16 -77.5z" />
<glyph unicode="&#xe3;" horiz-adv-x="973" d="M96 283q0 49 5 94t23 87.5t51.5 83.5t90.5 82.5t140.5 84.5t201.5 89v92q0 66 -11 106.5t-29 62t-41 28.5t-47 7t-47 -7.5t-41 -29.5t-29 -62t-11 -105h-256q1 91 28.5 165.5t77.5 127t120.5 81t157.5 28.5q103 0 175.5 -36t119 -93t68 -129t21.5 -144v-576 q0 -117 9.5 -193.5t23.5 -126.5h-255l-34 192q-24 -48 -49 -87t-55 -66t-67 -42t-85 -15t-94 25t-82 67t-58 96t-22 113zM102 1486q0 15 2.5 40t11 53.5t23 58t39 53.5t60 39t84.5 15q39 0 78.5 -13.5t76.5 -29.5t69.5 -29.5t56.5 -13.5q23 0 37 15.5t14 53.5h153 q0 -2 0.5 -5.5t0.5 -8.5q0 -15 -2.5 -40t-11 -54t-23 -59t-39 -54t-60 -39.5t-84.5 -15.5q-42 0 -83 13.5t-77.5 30t-68 30t-55.5 13.5q-23 0 -35.5 -14.5t-12.5 -52.5h-153q-1 2 -1 14zM352 351q0 -48 11 -78.5t29 -48.5t41 -25t47 -7q19 0 37.5 9t35 22.5t30.5 30.5t25 32 v354q-65 -43 -113 -77t-79.5 -67t-47.5 -67.5t-16 -77.5z" />
<glyph unicode="&#xe4;" horiz-adv-x="973" d="M96 283q0 49 5 94t23 87.5t51.5 83.5t90.5 82.5t140.5 84.5t201.5 89v92q0 66 -11 106.5t-29 62t-41 28.5t-47 7t-47 -7.5t-41 -29.5t-29 -62t-11 -105h-256q1 91 28.5 165.5t77.5 127t120.5 81t157.5 28.5q103 0 175.5 -36t119 -93t68 -129t21.5 -144v-576 q0 -117 9.5 -193.5t23.5 -126.5h-255l-34 192q-24 -48 -49 -87t-55 -66t-67 -42t-85 -15t-94 25t-82 67t-58 96t-22 113zM176 1536v256h256v-256h-256zM352 351q0 -48 11 -78.5t29 -48.5t41 -25t47 -7q19 0 37.5 9t35 22.5t30.5 30.5t25 32v354q-65 -43 -113 -77t-79.5 -67 t-47.5 -67.5t-16 -77.5zM560 1536v256h256v-256h-256z" />
<glyph unicode="&#xe5;" horiz-adv-x="973" d="M96 283q0 49 5 94t23 87.5t51.5 83.5t90.5 82.5t140.5 84.5t201.5 89v92q0 66 -11 106.5t-29 62t-41 28.5t-47 7t-47 -7.5t-41 -29.5t-29 -62t-11 -105h-256q1 91 28.5 165.5t77.5 127t120.5 81t157.5 28.5q103 0 175.5 -36t119 -93t68 -129t21.5 -144v-576 q0 -117 9.5 -193.5t23.5 -126.5h-255l-34 192q-24 -48 -49 -87t-55 -66t-67 -42t-85 -15t-94 25t-82 67t-58 96t-22 113zM225 1664q0 48 15.5 94t47 82t80 58t113.5 22t113.5 -22t80 -58t47 -82t15.5 -94t-15.5 -94t-47 -82t-80 -58t-113.5 -22t-113.5 22t-80 58t-47 82 t-15.5 94zM352 351q0 -48 11 -78.5t29 -48.5t41 -25t47 -7q19 0 37.5 9t35 22.5t30.5 30.5t25 32v354q-65 -43 -113 -77t-79.5 -67t-47.5 -67.5t-16 -77.5zM353 1664q0 -24 7 -47t22 -41t39.5 -29t59.5 -11q34 0 58.5 11t40 29t22.5 41t7 47t-7 47t-22.5 41t-40 29t-58.5 11 q-35 0 -59 -11t-39.5 -29t-22.5 -41t-7 -47z" />
<glyph unicode="&#xe6;" horiz-adv-x="1465" d="M97 283q0 41 4 83t20.5 82t49 78.5t89.5 73.5t142 66.5t207 58.5v171q0 66 -11 106.5t-29 62t-41 28.5t-47 7t-47 -7.5t-41 -29.5t-29 -62t-11 -105h-256q1 91 28.5 165.5t77.5 127t120.5 81t157.5 28.5q42 0 82 -9.5t74.5 -28t60.5 -47t39 -67.5q19 34 46 62t60 48 t70.5 31t78.5 11q76 0 142 -25t115 -76.5t77 -130t28 -186.5q0 -13 -0.5 -25.5t-1.5 -25.5q-4 -70 -42 -108.5t-103 -58t-152.5 -27t-190.5 -16.5v-43q0 -73 2 -143.5t14 -125.5t38 -88.5t74 -33.5q43 0 66.5 22t34.5 58t13 82.5t2 94.5v6h255q0 -240 -93 -353t-279 -113 q-106 0 -184.5 46t-122.5 151q-31 -45 -63.5 -81.5t-71.5 -62t-86.5 -39.5t-109.5 -14q-48 0 -94 25t-82 67t-58 96t-22 113zM353 351q0 -48 11 -78.5t29 -48.5t41 -25t47 -7q25 0 50 9.5t47 24t41 32t33 33.5q-10 37 -19 83q-8 39 -15 91.5t-9 114.5q-80 -21 -130 -47 t-78 -55t-38 -61t-10 -66zM864 764l117 14q35 5 61 8.5t43.5 15t26 34.5t8.5 68q0 33 -6.5 65.5t-21.5 59t-39.5 43t-60.5 16.5q-48 0 -74 -32.5t-38 -81t-14 -105t-2 -105.5z" />
<glyph unicode="&#xe7;" horiz-adv-x="923" d="M96 640q0 64 2 137.5t12.5 146.5t33.5 141t65.5 119.5t108.5 82.5t162 31q98 0 164.5 -25.5t109 -66.5t65.5 -93t33 -103.5t11 -98.5t1 -79h-256q0 16 -0.5 42t-3.5 55.5t-10.5 60t-22 54.5t-36.5 39.5t-55 15.5q-48 0 -74 -35.5t-38 -98t-14 -146t-2 -179.5t2 -178 t14 -142t38 -94t74 -34t74 22t38 58t14 82t2 94h256q0 -32 -2 -79t-13.5 -98.5t-35 -103.5t-66 -93t-108 -66.5t-159.5 -25.5q-96 0 -162 31t-108.5 82.5t-65.5 119.5t-33.5 141t-12.5 146.5t-2 137.5zM348 -384q72 0 121 1t79 7t43 19t13 37q0 19 -19 37.5t-47.5 35 t-62 30.5t-63.5 25v192h128v-128q40 -11 85 -28t83 -41t63 -54.5t25 -68.5q0 -72 -34 -111t-94 -57t-142 -21t-178 -3v128z" />
<glyph unicode="&#xe8;" horiz-adv-x="950" d="M96 670q0 181 24 301.5t72 193t120 103t168 30.5t168 -30.5t120 -103t72 -193t24 -301.5v-30h-512v-64q0 -72 2 -141t14 -123t38 -87t74 -33q49 0 75 22t38 58t14 82t2 94h255q0 -240 -96 -353t-289 -113q-96 0 -167.5 31.5t-119.5 109.5t-72 211t-24 336zM175 1792h256 l128 -384h-128zM352 768h256q0 48 -1.5 104t-13.5 104t-38 80t-75 32q-48 0 -74 -32t-38 -80t-14 -104t-2 -104z" />
<glyph unicode="&#xe9;" horiz-adv-x="950" d="M96 670q0 181 24 301.5t72 193t120 103t168 30.5t168 -30.5t120 -103t72 -193t24 -301.5v-30h-512v-64q0 -72 2 -141t14 -123t38 -87t74 -33q49 0 75 22t38 58t14 82t2 94h255q0 -240 -96 -353t-289 -113q-96 0 -167.5 31.5t-119.5 109.5t-72 211t-24 336zM352 768h256 q0 48 -1.5 104t-13.5 104t-38 80t-75 32q-48 0 -74 -32t-38 -80t-14 -104t-2 -104zM399 1408l128 384h256l-256 -384h-128z" />
<glyph unicode="&#xea;" horiz-adv-x="950" d="M96 670q0 181 24 301.5t72 193t120 103t168 30.5t168 -30.5t120 -103t72 -193t24 -301.5v-30h-512v-64q0 -72 2 -141t14 -123t38 -87t74 -33q49 0 75 22t38 58t14 82t2 94h255q0 -240 -96 -353t-289 -113q-96 0 -167.5 31.5t-119.5 109.5t-72 211t-24 336zM159 1408 l192 384h256l192 -384h-192l-128 256l-128 -256h-192zM352 768h256q0 48 -1.5 104t-13.5 104t-38 80t-75 32q-48 0 -74 -32t-38 -80t-14 -104t-2 -104z" />
<glyph unicode="&#xeb;" horiz-adv-x="950" d="M96 670q0 181 24 301.5t72 193t120 103t168 30.5t168 -30.5t120 -103t72 -193t24 -301.5v-30h-512v-64q0 -72 2 -141t14 -123t38 -87t74 -33q49 0 75 22t38 58t14 82t2 94h255q0 -240 -96 -353t-289 -113q-96 0 -167.5 31.5t-119.5 109.5t-72 211t-24 336zM155 1536v256 h256v-256h-256zM352 768h256q0 48 -1.5 104t-13.5 104t-38 80t-75 32q-48 0 -74 -32t-38 -80t-14 -104t-2 -104zM539 1536v256h256v-256h-256z" />
<glyph unicode="&#xec;" horiz-adv-x="512" d="M-53 1792h256l128 -384h-128zM128 0v1280h256v-1280h-256z" />
<glyph unicode="&#xed;" horiz-adv-x="512" d="M128 0v1280h256v-1280h-256zM169 1408l128 384h256l-256 -384h-128z" />
<glyph unicode="&#xee;" horiz-adv-x="512" d="M-69 1408l192 384h256l192 -384h-192l-128 256l-128 -256h-192zM128 0v1280h256v-1280h-256z" />
<glyph unicode="&#xef;" horiz-adv-x="512" d="M-62 1536v256h256v-256h-256zM128 0v1280h256v-1280h-256zM322 1536v256h256v-256h-256z" />
<glyph unicode="&#xf0;" d="M129 640q0 143 24 264t71.5 208.5t119.5 136.5t168 49q70 0 118.5 -22t79 -48.5t44 -49.5t14.5 -26q0 100 -17 171.5t-52 122.5l-443 -102v128l320 74q-72 32 -166.5 43t-217.5 11v210q118 0 218.5 -9.5t183.5 -32t149.5 -61t116.5 -96.5l228 53v-128l-156 -36 q47 -96 69.5 -228t22.5 -312v-384q0 -144 -34 -255t-94 -186t-142 -114t-178 -39q-132 0 -218.5 49t-137.5 136t-71 208t-20 265zM384 704q0 -144 12 -242t36 -158t60 -86t84 -26t84 23t60 65t36 101t12 131v466q-11 16 -27.5 35.5t-40 36t-54.5 27.5t-70 11 q-192 0 -192 -384z" />
<glyph unicode="&#xf1;" horiz-adv-x="992" d="M128 0v1280h256v-138q64 58 115 90t90.5 46.5t69.5 17t53 2.5q42 0 76 -17.5t58 -46.5t37 -66.5t13 -76.5v-1091h-256v960q0 24 -1.5 47t-10.5 41t-28.5 29t-55.5 11q-49 0 -86.5 -22.5t-73.5 -52.5v-1013h-256zM154 1486q0 15 2.5 40t11 53.5t23 58t39 53.5t60 39 t84.5 15q39 0 78.5 -13.5t76.5 -29.5t69.5 -29.5t56.5 -13.5q23 0 37 15.5t14 53.5h153q0 -2 0.5 -5.5t0.5 -8.5q0 -15 -2.5 -40t-11 -54t-23 -59t-39 -54t-60 -39.5t-84.5 -15.5q-42 0 -83 13.5t-77.5 30t-68 30t-55.5 13.5q-23 0 -35.5 -14.5t-12.5 -52.5h-153q-1 2 -1 14 z" />
<glyph unicode="&#xf2;" horiz-adv-x="960" d="M96 448v384q0 32 2 79t12.5 98.5t33.5 103.5t65.5 93t108.5 66.5t162 25.5t162 -25.5t108.5 -66.5t65.5 -93t33.5 -103.5t12.5 -98.5t2 -79v-384q0 -32 -2 -79t-12.5 -98.5t-33.5 -103.5t-65.5 -93t-108.5 -66.5t-162 -25.5t-162 25.5t-108.5 66.5t-65.5 93t-33.5 103.5 t-12.5 98.5t-2 79zM175 1792h256l128 -384h-128zM352 448q0 -48 2 -94t14 -82t38 -58t74 -22t74 22t38 58t14 82t2 94v384q0 48 -2 94t-14 82t-38 58t-74 22t-74 -22t-38 -58t-14 -82t-2 -94v-384z" />
<glyph unicode="&#xf3;" horiz-adv-x="960" d="M96 448v384q0 32 2 79t12.5 98.5t33.5 103.5t65.5 93t108.5 66.5t162 25.5t162 -25.5t108.5 -66.5t65.5 -93t33.5 -103.5t12.5 -98.5t2 -79v-384q0 -32 -2 -79t-12.5 -98.5t-33.5 -103.5t-65.5 -93t-108.5 -66.5t-162 -25.5t-162 25.5t-108.5 66.5t-65.5 93t-33.5 103.5 t-12.5 98.5t-2 79zM352 448q0 -48 2 -94t14 -82t38 -58t74 -22t74 22t38 58t14 82t2 94v384q0 48 -2 94t-14 82t-38 58t-74 22t-74 -22t-38 -58t-14 -82t-2 -94v-384zM399 1408l128 384h256l-256 -384h-128z" />
<glyph unicode="&#xf4;" horiz-adv-x="960" d="M96 448v384q0 32 2 79t12.5 98.5t33.5 103.5t65.5 93t108.5 66.5t162 25.5t162 -25.5t108.5 -66.5t65.5 -93t33.5 -103.5t12.5 -98.5t2 -79v-384q0 -32 -2 -79t-12.5 -98.5t-33.5 -103.5t-65.5 -93t-108.5 -66.5t-162 -25.5t-162 25.5t-108.5 66.5t-65.5 93t-33.5 103.5 t-12.5 98.5t-2 79zM159 1408l192 384h256l192 -384h-192l-128 256l-128 -256h-192zM352 448q0 -48 2 -94t14 -82t38 -58t74 -22t74 22t38 58t14 82t2 94v384q0 48 -2 94t-14 82t-38 58t-74 22t-74 -22t-38 -58t-14 -82t-2 -94v-384z" />
<glyph unicode="&#xf5;" horiz-adv-x="960" d="M96 448v384q0 32 2 79t12.5 98.5t33.5 103.5t65.5 93t108.5 66.5t162 25.5t162 -25.5t108.5 -66.5t65.5 -93t33.5 -103.5t12.5 -98.5t2 -79v-384q0 -32 -2 -79t-12.5 -98.5t-33.5 -103.5t-65.5 -93t-108.5 -66.5t-162 -25.5t-162 25.5t-108.5 66.5t-65.5 93t-33.5 103.5 t-12.5 98.5t-2 79zM102 1486q0 15 2.5 40t11 53.5t23 58t39 53.5t60 39t84.5 15q39 0 78.5 -13.5t76.5 -29.5t69.5 -29.5t56.5 -13.5q23 0 37 15.5t14 53.5h153q0 -2 0.5 -5.5t0.5 -8.5q0 -15 -2.5 -40t-11 -54t-23 -59t-39 -54t-60 -39.5t-84.5 -15.5q-42 0 -83 13.5 t-77.5 30t-68 30t-55.5 13.5q-23 0 -35.5 -14.5t-12.5 -52.5h-153q-1 2 -1 14zM352 448q0 -48 2 -94t14 -82t38 -58t74 -22t74 22t38 58t14 82t2 94v384q0 48 -2 94t-14 82t-38 58t-74 22t-74 -22t-38 -58t-14 -82t-2 -94v-384z" />
<glyph unicode="&#xf6;" horiz-adv-x="960" d="M96 448v384q0 32 2 79t12.5 98.5t33.5 103.5t65.5 93t108.5 66.5t162 25.5t162 -25.5t108.5 -66.5t65.5 -93t33.5 -103.5t12.5 -98.5t2 -79v-384q0 -32 -2 -79t-12.5 -98.5t-33.5 -103.5t-65.5 -93t-108.5 -66.5t-162 -25.5t-162 25.5t-108.5 66.5t-65.5 93t-33.5 103.5 t-12.5 98.5t-2 79zM160 1536v256h256v-256h-256zM352 448q0 -48 2 -94t14 -82t38 -58t74 -22t74 22t38 58t14 82t2 94v384q0 48 -2 94t-14 82t-38 58t-74 22t-74 -22t-38 -58t-14 -82t-2 -94v-384zM544 1536v256h256v-256h-256z" />
<glyph unicode="&#xf7;" horiz-adv-x="640" d="M0 576v192h640v-192h-640zM192 233v256h256v-256h-256zM192 879v256h256v-256h-256z" />
<glyph unicode="&#xf8;" horiz-adv-x="1024" d="M128 448v384q0 32 2 78.5t12.5 98.5t34 103.5t66 92.5t108 67t161.5 26q62 0 107.5 -10.5t87.5 -29.5l72 204h97l-92 -257q41 -41 64 -92.5t33.5 -103.5t12.5 -98.5t2 -78.5v-384q0 -32 -2 -79t-12.5 -98.5t-33.5 -103.5t-65.5 -93t-108.5 -66.5t-162 -25.5 q-94 0 -158 24l-72 -202h-86l84 239q-57 37 -88 92t-45 113.5t-16.5 112t-2.5 87.5zM384 448q0 -24 0.5 -47.5t1.5 -46.5v-8l236 669q-13 33 -38.5 53t-71.5 20q-48 0 -74 -22t-38 -58t-14 -82t-2 -94v-384zM431 220l7 -6q25 -22 74 -22q48 0 74 22t38 58t14 82t2 94v355z " />
<glyph unicode="&#xf9;" horiz-adv-x="1024" d="M128 189v1091h256v-1013q0 -42 25.5 -66t62.5 -24q24 0 46.5 8.5t43.5 21.5t40.5 29t37.5 31v1013h256v-1280h-256v138q-64 -58 -114 -89.5t-89.5 -46.5t-69.5 -17.5t-53 -2.5q-42 0 -76.5 17.5t-59 46t-37.5 66t-13 77.5zM205 1792h256l128 -384h-128z" />
<glyph unicode="&#xfa;" horiz-adv-x="1024" d="M128 189v1091h256v-1013q0 -42 25.5 -66t62.5 -24q24 0 46.5 8.5t43.5 21.5t40.5 29t37.5 31v1013h256v-1280h-256v138q-64 -58 -114 -89.5t-89.5 -46.5t-69.5 -17.5t-53 -2.5q-42 0 -76.5 17.5t-59 46t-37.5 66t-13 77.5zM429 1408l128 384h256l-256 -384h-128z" />
<glyph unicode="&#xfb;" horiz-adv-x="1024" d="M128 189v1091h256v-1013q0 -42 25.5 -66t62.5 -24q24 0 46.5 8.5t43.5 21.5t40.5 29t37.5 31v1013h256v-1280h-256v138q-64 -58 -114 -89.5t-89.5 -46.5t-69.5 -17.5t-53 -2.5q-42 0 -76.5 17.5t-59 46t-37.5 66t-13 77.5zM189 1408l192 384h256l192 -384h-192l-128 256 l-128 -256h-192z" />
<glyph unicode="&#xfc;" horiz-adv-x="1024" d="M128 189v1091h256v-1013q0 -42 25.5 -66t62.5 -24q24 0 46.5 8.5t43.5 21.5t40.5 29t37.5 31v1013h256v-1280h-256v138q-64 -58 -114 -89.5t-89.5 -46.5t-69.5 -17.5t-53 -2.5q-42 0 -76.5 17.5t-59 46t-37.5 66t-13 77.5zM192 1536v256h256v-256h-256zM576 1536v256h256 v-256h-256z" />
<glyph unicode="&#xfd;" horiz-adv-x="895" d="M45 1280h256l128 -704l33 -192l31 192l128 704h256l-320 -1344q-17 -74 -53.5 -123.5t-92 -79t-131 -41.5t-171.5 -12v192q59 0 100.5 14t67.5 38.5t37.5 58t11.5 73.5q0 17 -1.5 35t-6.5 37zM269 1408l128 384h256l-256 -384h-128z" />
<glyph unicode="&#xfe;" horiz-adv-x="838" d="M72 -340v1858h219v-494q44 47 79 73t62.5 38.5t49 15t38.5 2.5q79 0 128 -37t76 -116t36.5 -203.5t9.5 -298.5q0 -51 -3 -109t-11.5 -115t-25 -109t-44 -92t-66.5 -63.5t-94 -23.5q-32 0 -64.5 10.5t-63 27.5t-58 39.5t-49.5 45.5v-449h-219zM291 223q101 -59 155 -59 q37 0 57 30t29.5 94.5t11 167t1.5 248.5q0 60 -2.5 110.5t-13 87t-31.5 57t-58 20.5q-42 0 -78 -18t-71 -39v-699z" />
<glyph unicode="&#xff;" horiz-adv-x="895" d="M45 1280h256l128 -704l33 -192l31 192l128 704h256l-320 -1344q-17 -74 -53.5 -123.5t-92 -79t-131 -41.5t-171.5 -12v192q59 0 100.5 14t67.5 38.5t37.5 58t11.5 73.5q0 17 -1.5 35t-6.5 37zM141 1536v256h256v-256h-256zM525 1536v256h256v-256h-256z" />
<glyph unicode="&#x152;" horiz-adv-x="1664" d="M128 576v640q0 80 10 155t33.5 141t62.5 121t95.5 94t133.5 61t177 22q58 0 100.5 -14.5t73.5 -36.5t50.5 -47.5t31.5 -47.5v128h704v-192h-448v-576h320v-192h-320v-640h448v-192h-704v128q-12 -23 -32 -48.5t-50.5 -47.5t-73.5 -36t-100 -14q-100 0 -177 22t-133.5 61 t-95.5 94t-62.5 121t-33.5 141t-10 155zM384 512q0 -72 13 -131t43 -101t79 -65t121 -23t121 23t79 65t43 101t13 131v782q-1 69 -15 125.5t-44 96.5t-78.5 62t-118.5 22q-72 0 -121 -23t-79 -65t-43 -101t-13 -131v-768z" />
<glyph unicode="&#x153;" horiz-adv-x="1536" d="M128 448v384q0 32 2 79t12.5 98.5t33.5 103.5t65.5 93t108.5 66.5t162 25.5q58 0 100.5 -14.5t73.5 -36.5t50.5 -47.5t31.5 -47.5q11 22 30.5 47.5t50.5 47.5t74 36.5t102 14.5q96 0 167.5 -30.5t119.5 -103t72 -193t24 -301.5v-30h-512v-64q0 -72 2 -141t14 -123t38 -87 t74 -33q49 0 75 22t38 58t13.5 82t1.5 94h256q0 -240 -95.5 -353t-288.5 -113q-58 0 -100.5 14t-73 36t-50.5 47.5t-32 48.5q-12 -23 -32 -48.5t-50.5 -47.5t-73.5 -36t-100 -14q-96 0 -162 25.5t-108.5 66.5t-65.5 93t-33.5 103.5t-12.5 98.5t-2 79zM384 448q0 -48 2 -94 t14 -82t38 -58t74 -22t74 22t38 58t14 82t2 94v384q0 48 -2 94t-14 82t-38 58t-74 22t-74 -22t-38 -58t-14 -82t-2 -94v-384zM896 768h256q0 48 -1.5 104t-13 104t-37.5 80t-75 32q-48 0 -74 -32t-38.5 -80t-14.5 -104t-2 -104z" />
<glyph unicode="&#x178;" horiz-adv-x="1082" d="M29 1792h256l256 -896l256 896h256l-384 -1216v-576h-256v576zM221 2048v256h256v-256h-256zM605 2048v256h256v-256h-256z" />
<glyph unicode="&#x2c6;" horiz-adv-x="768" d="M64 1408l192 384h256l192 -384h-192l-128 256l-128 -256h-192z" />
<glyph unicode="&#x2dc;" horiz-adv-x="960" d="M127 1486q0 15 2.5 40t11 53.5t23 58t39 53.5t60 39t84.5 15q39 0 78.5 -13.5t76.5 -29.5t69.5 -29.5t56.5 -13.5q23 0 37 15.5t14 53.5h153q0 -2 0.5 -5.5t0.5 -8.5q0 -15 -2.5 -40t-11 -54t-23 -59t-39 -54t-60 -39.5t-84.5 -15.5q-42 0 -83 13.5t-77.5 30t-68 30 t-55.5 13.5q-23 0 -35.5 -14.5t-12.5 -52.5h-153q-1 2 -1 14z" />
<glyph unicode="&#x2000;" horiz-adv-x="1216" />
<glyph unicode="&#x2001;" horiz-adv-x="2432" />
<glyph unicode="&#x2002;" horiz-adv-x="1216" />
<glyph unicode="&#x2003;" horiz-adv-x="2432" />
<glyph unicode="&#x2004;" horiz-adv-x="810" />
<glyph unicode="&#x2005;" horiz-adv-x="608" />
<glyph unicode="&#x2006;" horiz-adv-x="405" />
<glyph unicode="&#x2007;" horiz-adv-x="405" />
<glyph unicode="&#x2008;" horiz-adv-x="304" />
<glyph unicode="&#x2009;" horiz-adv-x="486" />
<glyph unicode="&#x200a;" horiz-adv-x="135" />
<glyph unicode="&#x2010;" horiz-adv-x="384" d="M0 448v192h384v-192h-384z" />
<glyph unicode="&#x2011;" horiz-adv-x="384" d="M0 448v192h384v-192h-384z" />
<glyph unicode="&#x2012;" horiz-adv-x="384" d="M0 448v192h384v-192h-384z" />
<glyph unicode="&#x2013;" horiz-adv-x="384" d="M0 448v192h384v-192h-384z" />
<glyph unicode="&#x2014;" horiz-adv-x="384" d="M0 448v192h384v-192h-384z" />
<glyph unicode="&#x2018;" horiz-adv-x="512" d="M128 1280q0 144 3 242t21 158t57 86t111 26l64 -128q-48 0 -74 -13.5t-38 -33.5t-14 -42t-2 -39h128v-256h-256z" />
<glyph unicode="&#x2019;" horiz-adv-x="512" d="M128 1408q48 0 74 13.5t38 33.5t14 42t2 39h-128v256h256q0 -144 -3 -242t-21 -158t-57 -86t-111 -26z" />
<glyph unicode="&#x201a;" horiz-adv-x="384" d="M62 63h256l-64 -384h-128z" />
<glyph unicode="&#x201c;" horiz-adv-x="896" d="M128 1280q0 144 3 242t21 158t57 86t111 26l64 -128q-48 0 -74 -13.5t-38 -33.5t-14 -42t-2 -39h128v-256h-256zM512 1280q0 144 3 242t21 158t57 86t111 26l64 -128q-48 0 -74 -13.5t-38 -33.5t-14 -42t-2 -39h128v-256h-256z" />
<glyph unicode="&#x201d;" horiz-adv-x="896" d="M128 1408q48 0 74 13.5t38 33.5t14 42t2 39h-128v256h256q0 -144 -3 -242t-21 -158t-57 -86t-111 -26zM512 1408q48 0 74 13.5t38 33.5t14 42t2 39h-128v256h256q0 -144 -3 -242t-21 -158t-57 -86t-111 -26z" />
<glyph unicode="&#x201e;" horiz-adv-x="704" d="M62 64h256l-64 -384h-128zM385 64h256l-64 -384h-128z" />
<glyph unicode="&#x2022;" horiz-adv-x="960" d="M221 891q0 55 16.5 108.5t49.5 95t83 67t116 25.5t116 -25.5t83 -67t49.5 -95t16.5 -108.5q0 -56 -16.5 -109t-49.5 -94.5t-83 -67t-116 -25.5t-116 25.5t-83 67t-49.5 94.5t-16.5 109z" />
<glyph unicode="&#x202f;" horiz-adv-x="486" />
<glyph unicode="&#x205f;" horiz-adv-x="608" />
<glyph unicode="&#x20ac;" horiz-adv-x="971" d="M0 508v166h68v153h-68v166h70q4 124 26 224t70 171t126 109.5t195 38.5q123 0 203 -41.5t127 -112t66 -164.5t20 -200h-250q0 97 -17.5 154.5t-42.5 88t-52.5 39.5t-48.5 9q-55 0 -88 -19t-51 -58t-24 -98.5t-7 -140.5h196v-166h-196v-153h196v-166h-194 q4 -90 15.5 -148.5t32.5 -93t52 -48t75 -13.5q11 0 27 1.5t34 11t36.5 30t33 58t23.5 94.5t9 141h247q0 -69 -6.5 -137.5t-23 -132t-46 -118t-75.5 -94.5t-111 -63t-153 -23q-89 0 -155 21.5t-112.5 58.5t-76.5 88.5t-47.5 110.5t-25 124.5t-9.5 131.5h-68z" />
<glyph unicode="&#x2122;" horiz-adv-x="2204" d="M152 1364v154h497v-154h-164v-678h-170v678h-163zM741 686v832h242l104 -453l107 453h242v-832h-160v555l-137 -555h-103l-137 555v-555h-158z" />
<glyph unicode="&#xe000;" horiz-adv-x="1280" d="M0 0v1280h1280v-1280h-1280z" />
<glyph unicode="&#xfb01;" horiz-adv-x="1216" d="M64 1088v192h128v49q0 43 0.5 89.5t8 90.5t24 84t49 70t83 47.5t125.5 17.5q36 0 70 -2.5t88 -9.5v-190q-24 2 -47.5 6t-38.5 4q-36 0 -57.5 -13t-32 -35t-13.5 -51t-3 -61v-96h192v-192h-192v-1088h-256v1088h-128zM832 0v1280h256v-1280h-256zM832 1472v256h256v-256 h-256z" />
<glyph unicode="&#xfb02;" horiz-adv-x="1216" d="M64 1088v192h128v49q0 43 0.5 89.5t8 90.5t24 84t49 70t83 47.5t125.5 17.5q36 0 70 -2.5t88 -9.5v-190q-24 2 -47.5 6t-38.5 4q-36 0 -57.5 -13t-32 -35t-13.5 -51t-3 -61v-96h192v-192h-192v-1088h-256v1088h-128zM832 0v1792h256v-1792h-256z" />
</font>
</defs></svg> 